lab1/waveform.vcd
$version Generated by VerilatedVcd $end
$timescale 1s $end

 $scope module TOP $end
  $var wire  1 ] clk $end
  $var wire 32 _ r[0] [31:0] $end
  $var wire 32 i r[10] [31:0] $end
  $var wire 32 j r[11] [31:0] $end
  $var wire 32 k r[12] [31:0] $end
  $var wire 32 l r[13] [31:0] $end
  $var wire 32 m r[14] [31:0] $end
  $var wire 32 n r[15] [31:0] $end
  $var wire 32 o r[16] [31:0] $end
  $var wire 32 p r[17] [31:0] $end
  $var wire 32 q r[18] [31:0] $end
  $var wire 32 r r[19] [31:0] $end
  $var wire 32 ` r[1] [31:0] $end
  $var wire 32 s r[20] [31:0] $end
  $var wire 32 t r[21] [31:0] $end
  $var wire 32 u r[22] [31:0] $end
  $var wire 32 v r[23] [31:0] $end
  $var wire 32 w r[24] [31:0] $end
  $var wire 32 x r[25] [31:0] $end
  $var wire 32 y r[26] [31:0] $end
  $var wire 32 z r[27] [31:0] $end
  $var wire 32 { r[28] [31:0] $end
  $var wire 32 | r[29] [31:0] $end
  $var wire 32 a r[2] [31:0] $end
  $var wire 32 } r[30] [31:0] $end
  $var wire 32 ~ r[31] [31:0] $end
  $var wire 32 b r[3] [31:0] $end
  $var wire 32 c r[4] [31:0] $end
  $var wire 32 d r[5] [31:0] $end
  $var wire 32 e r[6] [31:0] $end
  $var wire 32 f r[7] [31:0] $end
  $var wire 32 g r[8] [31:0] $end
  $var wire 32 h r[9] [31:0] $end
  $var wire  1 ^ start $end
  $scope module SingleCycleCPU $end
   $var wire  4 , ALUCtl [3:0] $end
   $var wire  2 - ALUOp [1:0] $end
   $var wire  1 1 ALUSrc $end
   $var wire 32 Z ALU_Out [31:0] $end
   $var wire 32 ( Imm [31:0] $end
   $var wire 32 ' Ins [31:0] $end
   $var wire 32 & MuxALU_Out [31:0] $end
   $var wire 32 !! MuxPC_Out [31:0] $end
   $var wire 32 # PC [31:0] $end
   $var wire 32 % PC_branch [31:0] $end
   $var wire 32 $ PC_plus4 [31:0] $end
   $var wire  1 $! andOut $end
   $var wire  1 . branch $end
   $var wire  1 ] clk $end
   $var wire  1 [ memRead $end
   $var wire  1 / memWrite $end
   $var wire  1 0 memtoReg $end
   $var wire 32 _ r[0] [31:0] $end
   $var wire 32 i r[10] [31:0] $end
   $var wire 32 j r[11] [31:0] $end
   $var wire 32 k r[12] [31:0] $end
   $var wire 32 l r[13] [31:0] $end
   $var wire 32 m r[14] [31:0] $end
   $var wire 32 n r[15] [31:0] $end
   $var wire 32 o r[16] [31:0] $end
   $var wire 32 p r[17] [31:0] $end
   $var wire 32 q r[18] [31:0] $end
   $var wire 32 r r[19] [31:0] $end
   $var wire 32 ` r[1] [31:0] $end
   $var wire 32 s r[20] [31:0] $end
   $var wire 32 t r[21] [31:0] $end
   $var wire 32 u r[22] [31:0] $end
   $var wire 32 v r[23] [31:0] $end
   $var wire 32 w r[24] [31:0] $end
   $var wire 32 x r[25] [31:0] $end
   $var wire 32 y r[26] [31:0] $end
   $var wire 32 z r[27] [31:0] $end
   $var wire 32 { r[28] [31:0] $end
   $var wire 32 | r[29] [31:0] $end
   $var wire 32 a r[2] [31:0] $end
   $var wire 32 } r[30] [31:0] $end
   $var wire 32 ~ r[31] [31:0] $end
   $var wire 32 b r[3] [31:0] $end
   $var wire 32 c r[4] [31:0] $end
   $var wire 32 d r[5] [31:0] $end
   $var wire 32 e r[6] [31:0] $end
   $var wire 32 f r[7] [31:0] $end
   $var wire 32 g r[8] [31:0] $end
   $var wire 32 h r[9] [31:0] $end
   $var wire 32 #! readData [31:0] $end
   $var wire 32 ) readData1 [31:0] $end
   $var wire 32 * readData2 [31:0] $end
   $var wire  1 2 regWrite $end
   $var wire 32 + shiftOut [31:0] $end
   $var wire  1 ^ start $end
   $var wire 32 "! writeData [31:0] $end
   $var wire  1 \ zero $end
   $scope module m_ALU $end
    $var wire 32 ) A [31:0] $end
    $var wire 32 Z ALUOut [31:0] $end
    $var wire  4 , ALUctl [3:0] $end
    $var wire 32 & B [31:0] $end
    $var wire  1 \ zero $end
   $upscope $end
   $scope module m_ALUCtrl $end
    $var wire  4 , ALUCtl [3:0] $end
    $var wire  2 - ALUOp [1:0] $end
    $var wire  3 4 funct3 [2:0] $end
    $var wire  1 3 funct7 $end
   $upscope $end
   $scope module m_Adder_1 $end
    $var wire 32 # a [31:0] $end
    $var wire 32 %! b [31:0] $end
    $var wire 32 $ sum [31:0] $end
   $upscope $end
   $scope module m_Adder_2 $end
    $var wire 32 # a [31:0] $end
    $var wire 32 + b [31:0] $end
    $var wire 32 % sum [31:0] $end
   $upscope $end
   $scope module m_Control $end
    $var wire  2 - ALUOp [1:0] $end
    $var wire  1 1 ALUSrc $end
    $var wire  1 . branch $end
    $var wire  8 6 ctrl [7:0] $end
    $var wire  1 [ memRead $end
    $var wire  1 / memWrite $end
    $var wire  1 0 memtoReg $end
    $var wire  7 5 opcode [6:0] $end
    $var wire  1 2 regWrite $end
   $upscope $end
   $scope module m_DataMemory $end
    $var wire 32 Z address [31:0] $end
    $var wire  1 ] clk $end
    $var wire  1 [ memRead $end
    $var wire  1 / memWrite $end
    $var wire 32 #! readData [31:0] $end
    $var wire  1 ^ rst $end
    $var wire 32 * writeData [31:0] $end
   $upscope $end
   $scope module m_ImmGen $end
    $var wire 32 ( imm [31:0] $end
    $var wire 32 ' inst [31:0] $end
    $var wire  7 5 opcode [6:0] $end
   $upscope $end
   $scope module m_InstMem $end
    $var wire 32 ' inst [31:0] $end
    $var wire 32 # readAddr [31:0] $end
   $upscope $end
   $scope module m_Mux_ALU $end
    $var wire 32 & out [31:0] $end
    $var wire 32 * s0 [31:0] $end
    $var wire 32 ( s1 [31:0] $end
    $var wire  1 1 sel $end
    $var wire 32 &! size [31:0] $end
   $upscope $end
   $scope module m_Mux_PC $end
    $var wire 32 !! out [31:0] $end
    $var wire 32 $ s0 [31:0] $end
    $var wire 32 % s1 [31:0] $end
    $var wire  1 $! sel $end
    $var wire 32 &! size [31:0] $end
   $upscope $end
   $scope module m_Mux_WriteData $end
    $var wire 32 "! out [31:0] $end
    $var wire 32 Z s0 [31:0] $end
    $var wire 32 #! s1 [31:0] $end
    $var wire  1 0 sel $end
    $var wire 32 &! size [31:0] $end
   $upscope $end
   $scope module m_PC $end
    $var wire  1 ] clk $end
    $var wire 32 !! pc_i [31:0] $end
    $var wire 32 # pc_o [31:0] $end
    $var wire  1 ^ rst $end
   $upscope $end
   $scope module m_Register $end
    $var wire  1 ] clk $end
    $var wire 32 ) readData1 [31:0] $end
    $var wire 32 * readData2 [31:0] $end
    $var wire  5 7 readReg1 [4:0] $end
    $var wire  5 8 readReg2 [4:0] $end
    $var wire  1 2 regWrite $end
    $var wire 32 : regs[0] [31:0] $end
    $var wire 32 D regs[10] [31:0] $end
    $var wire 32 E regs[11] [31:0] $end
    $var wire 32 F regs[12] [31:0] $end
    $var wire 32 G regs[13] [31:0] $end
    $var wire 32 H regs[14] [31:0] $end
    $var wire 32 I regs[15] [31:0] $end
    $var wire 32 J regs[16] [31:0] $end
    $var wire 32 K regs[17] [31:0] $end
    $var wire 32 L regs[18] [31:0] $end
    $var wire 32 M regs[19] [31:0] $end
    $var wire 32 ; regs[1] [31:0] $end
    $var wire 32 N regs[20] [31:0] $end
    $var wire 32 O regs[21] [31:0] $end
    $var wire 32 P regs[22] [31:0] $end
    $var wire 32 Q regs[23] [31:0] $end
    $var wire 32 R regs[24] [31:0] $end
    $var wire 32 S regs[25] [31:0] $end
    $var wire 32 T regs[26] [31:0] $end
    $var wire 32 U regs[27] [31:0] $end
    $var wire 32 V regs[28] [31:0] $end
    $var wire 32 W regs[29] [31:0] $end
    $var wire 32 < regs[2] [31:0] $end
    $var wire 32 X regs[30] [31:0] $end
    $var wire 32 Y regs[31] [31:0] $end
    $var wire 32 = regs[3] [31:0] $end
    $var wire 32 > regs[4] [31:0] $end
    $var wire 32 ? regs[5] [31:0] $end
    $var wire 32 @ regs[6] [31:0] $end
    $var wire 32 A regs[7] [31:0] $end
    $var wire 32 B regs[8] [31:0] $end
    $var wire 32 C regs[9] [31:0] $end
    $var wire  1 ^ rst $end
    $var wire 32 "! writeData [31:0] $end
    $var wire  5 9 writeReg [4:0] $end
   $upscope $end
   $scope module m_ShiftLeftOne $end
    $var wire 32 ( i [31:0] $end
    $var wire 32 + o [31:0] $end
   $upscope $end
  $upscope $end
 $upscope $end
$enddefinitions $end


#0
b00000000000000000000000000000000 #
b00000000000000000000000000000100 $
b00000000000000000000000101000110 %
b00000000000000000000000010100011 &
b00001010001100000000010000010011 '
b00000000000000000000000010100011 (
b00000000000000000000000000000000 )
b00000000000000000000000000000000 *
b00000000000000000000000101000110 +
b0010 ,
b11 -
0.
0/
00
11
12
03
b000 4
b0010011 5
b00011011 6
b00000 7
b00011 8
b01000 9
b00000000000000000000000000000000 :
b00000000000000000000000000000000 ;
b00000000000000000000000000000000 <
b00000000000000000000000000000000 =
b00000000000000000000000000000000 >
b00000000000000000000000000000000 ?
b00000000000000000000000000000000 @
b00000000000000000000000000000000 A
b00000000000000000000000000000000 B
b00000000000000000000000000000000 C
b00000000000000000000000000000000 D
b00000000000000000000000000000000 E
b00000000000000000000000000000000 F
b00000000000000000000000000000000 G
b00000000000000000000000000000000 H
b00000000000000000000000000000000 I
b00000000000000000000000000000000 J
b00000000000000000000000000000000 K
b00000000000000000000000000000000 L
b00000000000000000000000000000000 M
b00000000000000000000000000000000 N
b00000000000000000000000000000000 O
b00000000000000000000000000000000 P
b00000000000000000000000000000000 Q
b00000000000000000000000000000000 R
b00000000000000000000000000000000 S
b00000000000000000000000000000000 T
b00000000000000000000000000000000 U
b00000000000000000000000000000000 V
b00000000000000000000000000000000 W
b00000000000000000000000000000000 X
b00000000000000000000000000000000 Y
b00000000000000000000000010100011 Z
0[
0\
0]
1^
b00000000000000000000000000000000 _
b00000000000000000000000000000000 `
b00000000000000000000000000000000 a
b00000000000000000000000000000000 b
b00000000000000000000000000000000 c
b00000000000000000000000000000000 d
b00000000000000000000000000000000 e
b00000000000000000000000000000000 f
b00000000000000000000000000000000 g
b00000000000000000000000000000000 h
b00000000000000000000000000000000 i
b00000000000000000000000000000000 j
b00000000000000000000000000000000 k
b00000000000000000000000000000000 l
b00000000000000000000000000000000 m
b00000000000000000000000000000000 n
b00000000000000000000000000000000 o
b00000000000000000000000000000000 p
b00000000000000000000000000000000 q
b00000000000000000000000000000000 r
b00000000000000000000000000000000 s
b00000000000000000000000000000000 t
b00000000000000000000000000000000 u
b00000000000000000000000000000000 v
b00000000000000000000000000000000 w
b00000000000000000000000000000000 x
b00000000000000000000000000000000 y
b00000000000000000000000000000000 z
b00000000000000000000000000000000 {
b00000000000000000000000000000000 |
b00000000000000000000000000000000 }
b00000000000000000000000000000000 ~
b00000000000000000000000000000100 !!
b00000000000000000000000010100011 "!
b00000000000000000000000000000000 #!
0$!
b00000000000000000000000000000100 %!
b00000000000000000000000000100000 &!
#1
b00000000000000000000000010000000 <
1]
0^
b00000000000000000000000010000000 a
#2
b00000000000000000000000000000100 #
b00000000000000000000000000001000 $
b11111111111111111111111111111100 %
b11111111111111111111111111111100 &
b11111111110000010000000100010011 '
b11111111111111111111111111111100 (
b00000000000000000000000010000000 )
b11111111111111111111111111111000 +
13
b00010 7
b11100 8
b00010 9
b00000000000000000000000010100011 B
b00000000000000000000000001111100 Z
0]
1^
b00000000000000000000000010100011 g
b00000000000000000000000000001000 !!
b00000000000000000000000001111100 "!
#3
1]
#4
b00000000000000000000000000001000 #
b00000000000000000000000000001100 $
b00000000000000000000000000001000 %
b00000000000000000000000000000000 &
b00000000100000010010000000100011 '
b00000000000000000000000000000000 (
b00000000000000000000000001111100 )
b00000000000000000000000010100011 *
b00000000000000000000000000000000 +
b00 -
1/
02
03
b010 4
b0100011 5
b00000110 6
b01000 8
b00000 9
b00000000000000000000000001111100 <
0]
b00000000000000000000000001111100 a
b00000000000000000000000000001100 !!
#5
1]
#6
b00000000000000000000000000001100 #
b00000000000000000000000000010000 $
b00000000000000000000000000001100 %
b00000000000000000000010000110011 '
b00000000000000000000000000000000 )
b00000000000000000000000000000000 *
b10 -
0/
01
12
b000 4
b0110011 5
b00010001 6
b00000 7
b00000 8
b01000 9
b00000000000000000000000000000000 Z
1\
0]
b00000000000000000000000000010000 !!
b00000000000000000000000000000000 "!
#7
1]
#8
b00000000000000000000000000010000 #
b00000000000000000000000000010100 $
b00000000000000000000000000010000 %
b00000000000000000000001010010011 '
b11 -
11
b0010011 5
b00011011 6
b00101 9
b00000000000000000000000000000000 B
0]
b00000000000000000000000000000000 g
b00000000000000000000000000010100 !!
#9
1]
#10
b00000000000000000000000000010100 #
b00000000000000000000000000011000 $
b00000000000000000000000000100010 %
b00000000000000000000000000000111 &
b00000000011100101010001100010011 '
b00000000000000000000000000000111 (
b00000000000000000000000000001110 +
b0111 ,
b010 4
b00101 7
b00111 8
b00110 9
b00000000000000000000000000000001 Z
0\
0]
b00000000000000000000000000011000 !!
b00000000000000000000000000000001 "!
#11
1]
#12
b00000000000000000000000000011000 #
b00000000000000000000000000011100 $
b00000000000000000000000000100100 %
b00000000000000000000000000000000 &
b00000000000000110000011001100011 '
b00000000000000000000000000000110 (
b00000000000000000000000000000001 )
b00000000000000000000000000001100 +
b0110 ,
b01 -
1.
01
02
b000 4
b1100011 5
b10001000 6
b00110 7
b00000 8
b01100 9
b00000000000000000000000000000001 @
0]
b00000000000000000000000000000001 e
b00000000000000000000000000011100 !!
#13
1]
#14
b00000000000000000000000000011100 #
b00000000000000000000000000100000 $
b00000000000000000000000000011110 %
b00000000000000000000000000000001 &
b00000000000100101000001010010011 '
b00000000000000000000000000000001 (
b00000000000000000000000000000000 )
b00000000000000000000000000000010 +
b0010 ,
b11 -
0.
11
12
b0010011 5
b00011011 6
b00101 7
b00001 8
b00101 9
0]
b00000000000000000000000000100000 !!
#15
1]
#16
b00000000000000000000000000100000 #
b00000000000000000000000000100100 $
b00000000000000000000000000010100 %
b00000000000000000000000000000000 &
b11111110000000000000101011100011 '
b11111111111111111111111111111010 (
b11111111111111111111111111110100 +
b0110 ,
b01 -
1.
01
02
13
b1100011 5
b10001000 6
b00000 7
b00000 8
b10101 9
b00000000000000000000000000000001 ?
b00000000000000000000000000000000 Z
1\
0]
b00000000000000000000000000000001 d
b00000000000000000000000000010100 !!
b00000000000000000000000000000000 "!
1$!
#17
1]
#18
b00000000000000000000000000010100 #
b00000000000000000000000000011000 $
b00000000000000000000000000100010 %
b00000000000000000000000000000111 &
b00000000011100101010001100010011 '
b00000000000000000000000000000111 (
b00000000000000000000000000000001 )
b00000000000000000000000000001110 +
b0111 ,
b11 -
0.
11
12
03
b010 4
b0010011 5
b00011011 6
b00101 7
b00111 8
b00110 9
b00000000000000000000000000000001 Z
0\
0]
b00000000000000000000000000011000 !!
b00000000000000000000000000000001 "!
0$!
#19
1]
#20
b00000000000000000000000000011000 #
b00000000000000000000000000011100 $
b00000000000000000000000000100100 %
b00000000000000000000000000000000 &
b00000000000000110000011001100011 '
b00000000000000000000000000000110 (
b00000000000000000000000000001100 +
b0110 ,
b01 -
1.
01
02
b000 4
b1100011 5
b10001000 6
b00110 7
b00000 8
b01100 9
0]
b00000000000000000000000000011100 !!
#21
1]
#22
b00000000000000000000000000011100 #
b00000000000000000000000000100000 $
b00000000000000000000000000011110 %
b00000000000000000000000000000001 &
b00000000000100101000001010010011 '
b00000000000000000000000000000001 (
b00000000000000000000000000000010 +
b0010 ,
b11 -
0.
11
12
b0010011 5
b00011011 6
b00101 7
b00001 8
b00101 9
b00000000000000000000000000000010 Z
0]
b00000000000000000000000000100000 !!
b00000000000000000000000000000010 "!
#23
1]
#24
b00000000000000000000000000100000 #
b00000000000000000000000000100100 $
b00000000000000000000000000010100 %
b00000000000000000000000000000000 &
b11111110000000000000101011100011 '
b11111111111111111111111111111010 (
b00000000000000000000000000000000 )
b11111111111111111111111111110100 +
b0110 ,
b01 -
1.
01
02
13
b1100011 5
b10001000 6
b00000 7
b00000 8
b10101 9
b00000000000000000000000000000010 ?
b00000000000000000000000000000000 Z
1\
0]
b00000000000000000000000000000010 d
b00000000000000000000000000010100 !!
b00000000000000000000000000000000 "!
1$!
#25
1]
#26
b00000000000000000000000000010100 #
b00000000000000000000000000011000 $
b00000000000000000000000000100010 %
b00000000000000000000000000000111 &
b00000000011100101010001100010011 '
b00000000000000000000000000000111 (
b00000000000000000000000000000010 )
b00000000000000000000000000001110 +
b0111 ,
b11 -
0.
11
12
03
b010 4
b0010011 5
b00011011 6
b00101 7
b00111 8
b00110 9
b00000000000000000000000000000001 Z
0\
0]
b00000000000000000000000000011000 !!
b00000000000000000000000000000001 "!
0$!
#27
1]
#28
b00000000000000000000000000011000 #
b00000000000000000000000000011100 $
b00000000000000000000000000100100 %
b00000000000000000000000000000000 &
b00000000000000110000011001100011 '
b00000000000000000000000000000110 (
b00000000000000000000000000000001 )
b00000000000000000000000000001100 +
b0110 ,
b01 -
1.
01
02
b000 4
b1100011 5
b10001000 6
b00110 7
b00000 8
b01100 9
0]
b00000000000000000000000000011100 !!
#29
1]
#30
b00000000000000000000000000011100 #
b00000000000000000000000000100000 $
b00000000000000000000000000011110 %
b00000000000000000000000000000001 &
b00000000000100101000001010010011 '
b00000000000000000000000000000001 (
b00000000000000000000000000000010 )
b00000000000000000000000000000010 +
b0010 ,
b11 -
0.
11
12
b0010011 5
b00011011 6
b00101 7
b00001 8
b00101 9
b00000000000000000000000000000011 Z
0]
b00000000000000000000000000100000 !!
b00000000000000000000000000000011 "!
#31
1]
#32
b00000000000000000000000000100000 #
b00000000000000000000000000100100 $
b00000000000000000000000000010100 %
b00000000000000000000000000000000 &
b11111110000000000000101011100011 '
b11111111111111111111111111111010 (
b00000000000000000000000000000000 )
b11111111111111111111111111110100 +
b0110 ,
b01 -
1.
01
02
13
b1100011 5
b10001000 6
b00000 7
b00000 8
b10101 9
b00000000000000000000000000000011 ?
b00000000000000000000000000000000 Z
1\
0]
b00000000000000000000000000000011 d
b00000000000000000000000000010100 !!
b00000000000000000000000000000000 "!
1$!
#33
1]
#34
b00000000000000000000000000010100 #
b00000000000000000000000000011000 $
b00000000000000000000000000100010 %
b00000000000000000000000000000111 &
b00000000011100101010001100010011 '
b00000000000000000000000000000111 (
b00000000000000000000000000000011 )
b00000000000000000000000000001110 +
b0111 ,
b11 -
0.
11
12
03
b010 4
b0010011 5
b00011011 6
b00101 7
b00111 8
b00110 9
b00000000000000000000000000000001 Z
0\
0]
b00000000000000000000000000011000 !!
b00000000000000000000000000000001 "!
0$!
#35
1]
#36
b00000000000000000000000000011000 #
b00000000000000000000000000011100 $
b00000000000000000000000000100100 %
b00000000000000000000000000000000 &
b00000000000000110000011001100011 '
b00000000000000000000000000000110 (
b00000000000000000000000000000001 )
b00000000000000000000000000001100 +
b0110 ,
b01 -
1.
01
02
b000 4
b1100011 5
b10001000 6
b00110 7
b00000 8
b01100 9
0]
b00000000000000000000000000011100 !!
#37
1]
#38
b00000000000000000000000000011100 #
b00000000000000000000000000100000 $
b00000000000000000000000000011110 %
b00000000000000000000000000000001 &
b00000000000100101000001010010011 '
b00000000000000000000000000000001 (
b00000000000000000000000000000011 )
b00000000000000000000000000000010 +
b0010 ,
b11 -
0.
11
12
b0010011 5
b00011011 6
b00101 7
b00001 8
b00101 9
b00000000000000000000000000000100 Z
0]
b00000000000000000000000000100000 !!
b00000000000000000000000000000100 "!
#39
1]
#40
b00000000000000000000000000100000 #
b00000000000000000000000000100100 $
b00000000000000000000000000010100 %
b00000000000000000000000000000000 &
b11111110000000000000101011100011 '
b11111111111111111111111111111010 (
b00000000000000000000000000000000 )
b11111111111111111111111111110100 +
b0110 ,
b01 -
1.
01
02
13
b1100011 5
b10001000 6
b00000 7
b00000 8
b10101 9
b00000000000000000000000000000100 ?
b00000000000000000000000000000000 Z
1\
0]
b00000000000000000000000000000100 d
b00000000000000000000000000010100 !!
b00000000000000000000000000000000 "!
1$!
#41
1]
#42
b00000000000000000000000000010100 #
b00000000000000000000000000011000 $
b00000000000000000000000000100010 %
b00000000000000000000000000000111 &
b00000000011100101010001100010011 '
b00000000000000000000000000000111 (
b00000000000000000000000000000100 )
b00000000000000000000000000001110 +
b0111 ,
b11 -
0.
11
12
03
b010 4
b0010011 5
b00011011 6
b00101 7
b00111 8
b00110 9
b00000000000000000000000000000001 Z
0\
0]
b00000000000000000000000000011000 !!
b00000000000000000000000000000001 "!
0$!
#43
1]
#44
b00000000000000000000000000011000 #
b00000000000000000000000000011100 $
b00000000000000000000000000100100 %
b00000000000000000000000000000000 &
b00000000000000110000011001100011 '
b00000000000000000000000000000110 (
b00000000000000000000000000000001 )
b00000000000000000000000000001100 +
b0110 ,
b01 -
1.
01
02
b000 4
b1100011 5
b10001000 6
b00110 7
b00000 8
b01100 9
0]
b00000000000000000000000000011100 !!
#45
1]
#46
b00000000000000000000000000011100 #
b00000000000000000000000000100000 $
b00000000000000000000000000011110 %
b00000000000000000000000000000001 &
b00000000000100101000001010010011 '
b00000000000000000000000000000001 (
b00000000000000000000000000000100 )
b00000000000000000000000000000010 +
b0010 ,
b11 -
0.
11
12
b0010011 5
b00011011 6
b00101 7
b00001 8
b00101 9
b00000000000000000000000000000101 Z
0]
b00000000000000000000000000100000 !!
b00000000000000000000000000000101 "!
#47
1]
#48
b00000000000000000000000000100000 #
b00000000000000000000000000100100 $
b00000000000000000000000000010100 %
b00000000000000000000000000000000 &
b11111110000000000000101011100011 '
b11111111111111111111111111111010 (
b00000000000000000000000000000000 )
b11111111111111111111111111110100 +
b0110 ,
b01 -
1.
01
02
13
b1100011 5
b10001000 6
b00000 7
b00000 8
b10101 9
b00000000000000000000000000000101 ?
b00000000000000000000000000000000 Z
1\
0]
b00000000000000000000000000000101 d
b00000000000000000000000000010100 !!
b00000000000000000000000000000000 "!
1$!
#49
1]
#50
b00000000000000000000000000010100 #
b00000000000000000000000000011000 $
b00000000000000000000000000100010 %
b00000000000000000000000000000111 &
b00000000011100101010001100010011 '
b00000000000000000000000000000111 (
b00000000000000000000000000000101 )
b00000000000000000000000000001110 +
b0111 ,
b11 -
0.
11
12
03
b010 4
b0010011 5
b00011011 6
b00101 7
b00111 8
b00110 9
b00000000000000000000000000000001 Z
0\
0]
b00000000000000000000000000011000 !!
b00000000000000000000000000000001 "!
0$!
#51
1]
#52
b00000000000000000000000000011000 #
b00000000000000000000000000011100 $
b00000000000000000000000000100100 %
b00000000000000000000000000000000 &
b00000000000000110000011001100011 '
b00000000000000000000000000000110 (
b00000000000000000000000000000001 )
b00000000000000000000000000001100 +
b0110 ,
b01 -
1.
01
02
b000 4
b1100011 5
b10001000 6
b00110 7
b00000 8
b01100 9
0]
b00000000000000000000000000011100 !!
#53
1]
#54
b00000000000000000000000000011100 #
b00000000000000000000000000100000 $
b00000000000000000000000000011110 %
b00000000000000000000000000000001 &
b00000000000100101000001010010011 '
b00000000000000000000000000000001 (
b00000000000000000000000000000101 )
b00000000000000000000000000000010 +
b0010 ,
b11 -
0.
11
12
b0010011 5
b00011011 6
b00101 7
b00001 8
b00101 9
b00000000000000000000000000000110 Z
0]
b00000000000000000000000000100000 !!
b00000000000000000000000000000110 "!
#55
1]
#56
b00000000000000000000000000100000 #
b00000000000000000000000000100100 $
b00000000000000000000000000010100 %
b00000000000000000000000000000000 &
b11111110000000000000101011100011 '
b11111111111111111111111111111010 (
b00000000000000000000000000000000 )
b11111111111111111111111111110100 +
b0110 ,
b01 -
1.
01
02
13
b1100011 5
b10001000 6
b00000 7
b00000 8
b10101 9
b00000000000000000000000000000110 ?
b00000000000000000000000000000000 Z
1\
0]
b00000000000000000000000000000110 d
b00000000000000000000000000010100 !!
b00000000000000000000000000000000 "!
1$!
#57
1]
#58
b00000000000000000000000000010100 #
b00000000000000000000000000011000 $
b00000000000000000000000000100010 %
b00000000000000000000000000000111 &
b00000000011100101010001100010011 '
b00000000000000000000000000000111 (
b00000000000000000000000000000110 )
b00000000000000000000000000001110 +
b0111 ,
b11 -
0.
11
12
03
b010 4
b0010011 5
b00011011 6
b00101 7
b00111 8
b00110 9
b00000000000000000000000000000001 Z
0\
0]
b00000000000000000000000000011000 !!
b00000000000000000000000000000001 "!
0$!
#59
1]
#60
b00000000000000000000000000011000 #
b00000000000000000000000000011100 $
b00000000000000000000000000100100 %
b00000000000000000000000000000000 &
b00000000000000110000011001100011 '
b00000000000000000000000000000110 (
b00000000000000000000000000000001 )
b00000000000000000000000000001100 +
b0110 ,
b01 -
1.
01
02
b000 4
b1100011 5
b10001000 6
b00110 7
b00000 8
b01100 9
0]
b00000000000000000000000000011100 !!
#61
1]
#62
b00000000000000000000000000011100 #
b00000000000000000000000000100000 $
b00000000000000000000000000011110 %
b00000000000000000000000000000001 &
b00000000000100101000001010010011 '
b00000000000000000000000000000001 (
b00000000000000000000000000000110 )
b00000000000000000000000000000010 +
b0010 ,
b11 -
0.
11
12
b0010011 5
b00011011 6
b00101 7
b00001 8
b00101 9
b00000000000000000000000000000111 Z
0]
b00000000000000000000000000100000 !!
b00000000000000000000000000000111 "!
#63
1]
#64
b00000000000000000000000000100000 #
b00000000000000000000000000100100 $
b00000000000000000000000000010100 %
b00000000000000000000000000000000 &
b11111110000000000000101011100011 '
b11111111111111111111111111111010 (
b00000000000000000000000000000000 )
b11111111111111111111111111110100 +
b0110 ,
b01 -
1.
01
02
13
b1100011 5
b10001000 6
b00000 7
b00000 8
b10101 9
b00000000000000000000000000000111 ?
b00000000000000000000000000000000 Z
1\
0]
b00000000000000000000000000000111 d
b00000000000000000000000000010100 !!
b00000000000000000000000000000000 "!
1$!
#65
1]
#66
b00000000000000000000000000010100 #
b00000000000000000000000000011000 $
b00000000000000000000000000100010 %
b00000000000000000000000000000111 &
b00000000011100101010001100010011 '
b00000000000000000000000000000111 (
b00000000000000000000000000000111 )
b00000000000000000000000000001110 +
b0111 ,
b11 -
0.
11
12
03
b010 4
b0010011 5
b00011011 6
b00101 7
b00111 8
b00110 9
0]
b00000000000000000000000000011000 !!
0$!
#67
1]
#68
b00000000000000000000000000011000 #
b00000000000000000000000000011100 $
b00000000000000000000000000100100 %
b00000000000000000000000000000000 &
b00000000000000110000011001100011 '
b00000000000000000000000000000110 (
b00000000000000000000000000000000 )
b00000000000000000000000000001100 +
b0110 ,
b01 -
1.
01
02
b000 4
b1100011 5
b10001000 6
b00110 7
b00000 8
b01100 9
b00000000000000000000000000000000 @
0]
b00000000000000000000000000000000 e
b00000000000000000000000000100100 !!
1$!
#69
1]
#70
b00000000000000000000000000100100 #
b00000000000000000000000000101000 $
b00000000000000000000000000111000 %
b00000000000000000000000000001010 &
b00000000101000110110001100010011 '
b00000000000000000000000000001010 (
b00000000000000000000000000010100 +
b0001 ,
b11 -
0.
11
12
b110 4
b0010011 5
b00011011 6
b01010 8
b00110 9
b00000000000000000000000000001010 Z
0\
0]
b00000000000000000000000000101000 !!
b00000000000000000000000000001010 "!
0$!
#71
1]
#72
b00000000000000000000000000101000 #
b00000000000000000000000000101100 $
b00000000000000000000000000101000 %
b00000000000000000000000000000000 &
b00000000000000010010010000000011 '
b00000000000000000000000000000000 (
b00000000000000000000000001111100 )
b00000000000000000000000000000000 +
b0010 ,
b00 -
10
b010 4
b0000011 5
b01100011 6
b00010 7
b00000 8
b01000 9
b00000000000000000000000000001010 @
b00000000000000000000000001111100 Z
1[
0]
b00000000000000000000000000001010 e
b00000000000000000000000000101100 !!
b00000000000000000000000010100011 "!
b00000000000000000000000010100011 #!
#73
1]
#74
b00000000000000000000000000101100 #
b00000000000000000000000000110000 $
b00000000000000000000000000110100 %
b00000000000000000000000000000100 &
b00000000010000010000000100010011 '
b00000000000000000000000000000100 (
b00000000000000000000000000001000 +
b11 -
00
b000 4
b0010011 5
b00011011 6
b00100 8
b00010 9
b00000000000000000000000010100011 B
b00000000000000000000000010000000 Z
0[
0]
b00000000000000000000000010100011 g
b00000000000000000000000000110000 !!
b00000000000000000000000010000000 "!
#75
1]
#76
b00000000000000000000000000110000 #
b00000000000000000000000000110100 $
b00000000000000000000000000110000 %
b00000000000000000000000000000000 &
b00000000000000000000000000000000 '
b00000000000000000000000000000000 (
b00000000000000000000000000000000 )
b00000000000000000000000000000000 +
b00 -
01
02
b0000000 5
b00000000 6
b00000 7
b00000 8
b00000 9
b00000000000000000000000010000000 <
b00000000000000000000000000000000 Z
1\
0]
b00000000000000000000000010000000 a
b00000000000000000000000000110100 !!
b00000000000000000000000000000000 "!
#77
1]
#78
b00000000000000000000000000110100 #
b00000000000000000000000000111000 $
b00000000000000000000000000110100 %
0]
b00000000000000000000000000111000 !!
#79
1]
#80
b00000000000000000000000000111000 #
b00000000000000000000000000111100 $
b00000000000000000000000000111000 %
0]
b00000000000000000000000000111100 !!
#81
1]
#82
b00000000000000000000000000111100 #
b00000000000000000000000001000000 $
b00000000000000000000000000111100 %
0]
b00000000000000000000000001000000 !!
#83
1]
#84
b00000000000000000000000001000000 #
b00000000000000000000000001000100 $
b00000000000000000000000001000000 %
0]
b00000000000000000000000001000100 !!
#85
1]
#86
b00000000000000000000000001000100 #
b00000000000000000000000001001000 $
b00000000000000000000000001000100 %
0]
b00000000000000000000000001001000 !!
#87
1]
#88
b00000000000000000000000001001000 #
b00000000000000000000000001001100 $
b00000000000000000000000001001000 %
0]
b00000000000000000000000001001100 !!
#89
1]
#90
b00000000000000000000000001001100 #
b00000000000000000000000001010000 $
b00000000000000000000000001001100 %
0]
b00000000000000000000000001010000 !!
#91
1]
#92
b00000000000000000000000001010000 #
b00000000000000000000000001010100 $
b00000000000000000000000001010000 %
0]
b00000000000000000000000001010100 !!
#93
1]
