lab1/waveform.vcd
$version Generated by VerilatedVcd $end
$timescale 1s $end

 $scope module TOP $end
  $var wire 32 j a0 [31:0] $end
  $var wire 32 k a1 [31:0] $end
  $var wire  1 ] clk $end
  $var wire 32 l ra [31:0] $end
  $var wire 32 f s0 [31:0] $end
  $var wire 32 g s1 [31:0] $end
  $var wire 32 h s2 [31:0] $end
  $var wire 32 i sp [31:0] $end
  $var wire  1 ^ start $end
  $var wire 32 _ t0 [31:0] $end
  $var wire 32 ` t1 [31:0] $end
  $var wire 32 a t2 [31:0] $end
  $var wire 32 b t3 [31:0] $end
  $var wire 32 c t4 [31:0] $end
  $var wire 32 d t5 [31:0] $end
  $var wire 32 e t6 [31:0] $end
  $scope module SingleCycleCPU $end
   $var wire  4 , ALUCtl [3:0] $end
   $var wire  2 - ALUOp [1:0] $end
   $var wire  1 1 ALUSrc $end
   $var wire 32 Z ALU_Out [31:0] $end
   $var wire 32 ( Imm [31:0] $end
   $var wire 32 ' Ins [31:0] $end
   $var wire 32 & MuxALU_Out [31:0] $end
   $var wire 32 m MuxPC_Out [31:0] $end
   $var wire 32 # PC [31:0] $end
   $var wire 32 % PC_branch [31:0] $end
   $var wire 32 $ PC_plus4 [31:0] $end
   $var wire 32 j a0 [31:0] $end
   $var wire 32 k a1 [31:0] $end
   $var wire  1 p andOut $end
   $var wire  1 . branch $end
   $var wire  1 ] clk $end
   $var wire  1 [ memRead $end
   $var wire  1 / memWrite $end
   $var wire  1 0 memtoReg $end
   $var wire 32 l ra [31:0] $end
   $var wire 32 o readData [31:0] $end
   $var wire 32 ) readData1 [31:0] $end
   $var wire 32 * readData2 [31:0] $end
   $var wire  1 2 regWrite $end
   $var wire 32 f s0 [31:0] $end
   $var wire 32 g s1 [31:0] $end
   $var wire 32 h s2 [31:0] $end
   $var wire 32 + shiftOut [31:0] $end
   $var wire 32 i sp [31:0] $end
   $var wire  1 ^ start $end
   $var wire 32 _ t0 [31:0] $end
   $var wire 32 ` t1 [31:0] $end
   $var wire 32 a t2 [31:0] $end
   $var wire 32 b t3 [31:0] $end
   $var wire 32 c t4 [31:0] $end
   $var wire 32 d t5 [31:0] $end
   $var wire 32 e t6 [31:0] $end
   $var wire 32 n writeData [31:0] $end
   $var wire  1 \ zero $end
   $scope module m_ALU $end
    $var wire 32 ) A [31:0] $end
    $var wire 32 Z ALUOut [31:0] $end
    $var wire  4 , ALUctl [3:0] $end
    $var wire 32 & B [31:0] $end
    $var wire  1 \ zero $end
   $upscope $end
   $scope module m_ALUCtrl $end
    $var wire  4 , ALUCtl [3:0] $end
    $var wire  2 - ALUOp [1:0] $end
    $var wire  3 4 funct3 [2:0] $end
    $var wire  1 3 funct7 $end
   $upscope $end
   $scope module m_Adder_1 $end
    $var wire 32 # a [31:0] $end
    $var wire 32 q b [31:0] $end
    $var wire 32 $ sum [31:0] $end
   $upscope $end
   $scope module m_Adder_2 $end
    $var wire 32 # a [31:0] $end
    $var wire 32 + b [31:0] $end
    $var wire 32 % sum [31:0] $end
   $upscope $end
   $scope module m_Control $end
    $var wire  2 - ALUOp [1:0] $end
    $var wire  1 1 ALUSrc $end
    $var wire  1 . branch $end
    $var wire  8 6 ctrl [7:0] $end
    $var wire  1 [ memRead $end
    $var wire  1 / memWrite $end
    $var wire  1 0 memtoReg $end
    $var wire  7 5 opcode [6:0] $end
    $var wire  1 2 regWrite $end
   $upscope $end
   $scope module m_DataMemory $end
    $var wire 32 Z address [31:0] $end
    $var wire  1 ] clk $end
    $var wire  1 [ memRead $end
    $var wire  1 / memWrite $end
    $var wire 32 o readData [31:0] $end
    $var wire  1 ^ rst $end
    $var wire 32 * writeData [31:0] $end
   $upscope $end
   $scope module m_ImmGen $end
    $var wire 32 ( imm [31:0] $end
    $var wire 32 ' inst [31:0] $end
    $var wire  7 5 opcode [6:0] $end
   $upscope $end
   $scope module m_InstMem $end
    $var wire 32 ' inst [31:0] $end
    $var wire 32 # readAddr [31:0] $end
   $upscope $end
   $scope module m_Mux_ALU $end
    $var wire 32 & out [31:0] $end
    $var wire 32 * s0 [31:0] $end
    $var wire 32 ( s1 [31:0] $end
    $var wire  1 1 sel $end
    $var wire 32 r size [31:0] $end
   $upscope $end
   $scope module m_Mux_PC $end
    $var wire 32 m out [31:0] $end
    $var wire 32 $ s0 [31:0] $end
    $var wire 32 % s1 [31:0] $end
    $var wire  1 p sel $end
    $var wire 32 r size [31:0] $end
   $upscope $end
   $scope module m_Mux_WriteData $end
    $var wire 32 n out [31:0] $end
    $var wire 32 Z s0 [31:0] $end
    $var wire 32 o s1 [31:0] $end
    $var wire  1 0 sel $end
    $var wire 32 r size [31:0] $end
   $upscope $end
   $scope module m_PC $end
    $var wire  1 ] clk $end
    $var wire 32 m pc_i [31:0] $end
    $var wire 32 # pc_o [31:0] $end
    $var wire  1 ^ rst $end
   $upscope $end
   $scope module m_Register $end
    $var wire  1 ] clk $end
    $var wire 32 ) readData1 [31:0] $end
    $var wire 32 * readData2 [31:0] $end
    $var wire  5 7 readReg1 [4:0] $end
    $var wire  5 8 readReg2 [4:0] $end
    $var wire  1 2 regWrite $end
    $var wire 32 : regs[0] [31:0] $end
    $var wire 32 D regs[10] [31:0] $end
    $var wire 32 E regs[11] [31:0] $end
    $var wire 32 F regs[12] [31:0] $end
    $var wire 32 G regs[13] [31:0] $end
    $var wire 32 H regs[14] [31:0] $end
    $var wire 32 I regs[15] [31:0] $end
    $var wire 32 J regs[16] [31:0] $end
    $var wire 32 K regs[17] [31:0] $end
    $var wire 32 L regs[18] [31:0] $end
    $var wire 32 M regs[19] [31:0] $end
    $var wire 32 ; regs[1] [31:0] $end
    $var wire 32 N regs[20] [31:0] $end
    $var wire 32 O regs[21] [31:0] $end
    $var wire 32 P regs[22] [31:0] $end
    $var wire 32 Q regs[23] [31:0] $end
    $var wire 32 R regs[24] [31:0] $end
    $var wire 32 S regs[25] [31:0] $end
    $var wire 32 T regs[26] [31:0] $end
    $var wire 32 U regs[27] [31:0] $end
    $var wire 32 V regs[28] [31:0] $end
    $var wire 32 W regs[29] [31:0] $end
    $var wire 32 < regs[2] [31:0] $end
    $var wire 32 X regs[30] [31:0] $end
    $var wire 32 Y regs[31] [31:0] $end
    $var wire 32 = regs[3] [31:0] $end
    $var wire 32 > regs[4] [31:0] $end
    $var wire 32 ? regs[5] [31:0] $end
    $var wire 32 @ regs[6] [31:0] $end
    $var wire 32 A regs[7] [31:0] $end
    $var wire 32 B regs[8] [31:0] $end
    $var wire 32 C regs[9] [31:0] $end
    $var wire  1 ^ rst $end
    $var wire 32 n writeData [31:0] $end
    $var wire  5 9 writeReg [4:0] $end
   $upscope $end
   $scope module m_ShiftLeftOne $end
    $var wire 32 ( i [31:0] $end
    $var wire 32 + o [31:0] $end
   $upscope $end
  $upscope $end
 $upscope $end
$enddefinitions $end


#0
b00000000000000000000000000000000 #
b00000000000000000000000000000100 $
b00000000000000000000000101000110 %
b00000000000000000000000010100011 &
b00001010001100000000010000010011 '
b00000000000000000000000010100011 (
b00000000000000000000000000000000 )
b00000000000000000000000000000000 *
b00000000000000000000000101000110 +
b0010 ,
b11 -
0.
0/
00
11
12
03
b000 4
b0010011 5
b00011011 6
b00000 7
b00011 8
b01000 9
b00000000000000000000000000000000 :
b00000000000000000000000000000000 ;
b00000000000000000000000000000000 <
b00000000000000000000000000000000 =
b00000000000000000000000000000000 >
b00000000000000000000000000000000 ?
b00000000000000000000000000000000 @
b00000000000000000000000000000000 A
b00000000000000000000000000000000 B
b00000000000000000000000000000000 C
b00000000000000000000000000000000 D
b00000000000000000000000000000000 E
b00000000000000000000000000000000 F
b00000000000000000000000000000000 G
b00000000000000000000000000000000 H
b00000000000000000000000000000000 I
b00000000000000000000000000000000 J
b00000000000000000000000000000000 K
b00000000000000000000000000000000 L
b00000000000000000000000000000000 M
b00000000000000000000000000000000 N
b00000000000000000000000000000000 O
b00000000000000000000000000000000 P
b00000000000000000000000000000000 Q
b00000000000000000000000000000000 R
b00000000000000000000000000000000 S
b00000000000000000000000000000000 T
b00000000000000000000000000000000 U
b00000000000000000000000000000000 V
b00000000000000000000000000000000 W
b00000000000000000000000000000000 X
b00000000000000000000000000000000 Y
b00000000000000000000000010100011 Z
0[
0\
0]
1^
b00000000000000000000000000000000 _
b00000000000000000000000000000000 `
b00000000000000000000000000000000 a
b00000000000000000000000000000000 b
b00000000000000000000000000000000 c
b00000000000000000000000000000000 d
b00000000000000000000000000000000 e
b00000000000000000000000000000000 f
b00000000000000000000000000000000 g
b00000000000000000000000000000000 h
b00000000000000000000000000000000 i
b00000000000000000000000000000000 j
b00000000000000000000000000000000 k
b00000000000000000000000000000000 l
b00000000000000000000000000000100 m
b00000000000000000000000010100011 n
b00000000000000000000000000000000 o
0p
b00000000000000000000000000000100 q
b00000000000000000000000000100000 r
#1
b00000000000000000000000010000000 <
1]
0^
b00000000000000000000000010000000 i
#2
b00000000000000000000000000000100 #
b00000000000000000000000000001000 $
b11111111111111111111111111111100 %
b11111111111111111111111111111100 &
b11111111110000010000000100010011 '
b11111111111111111111111111111100 (
b00000000000000000000000010000000 )
b11111111111111111111111111111000 +
13
b00010 7
b11100 8
b00010 9
b00000000000000000000000010100011 B
b00000000000000000000000001111100 Z
0]
1^
b00000000000000000000000010100011 f
b00000000000000000000000000001000 m
b00000000000000000000000001111100 n
#3
1]
#4
b00000000000000000000000000001000 #
b00000000000000000000000000001100 $
b00000000000000000000000000001000 %
b00000000000000000000000000000000 &
b00000000100000010010000000100011 '
b00000000000000000000000000000000 (
b00000000000000000000000001111100 )
b00000000000000000000000010100011 *
b00000000000000000000000000000000 +
b00 -
1/
02
03
b010 4
b0100011 5
b00000110 6
b01000 8
b00000 9
b00000000000000000000000001111100 <
0]
b00000000000000000000000001111100 i
b00000000000000000000000000001100 m
#5
1]
#6
b00000000000000000000000000001100 #
b00000000000000000000000000010000 $
b00000000000000000000000000001100 %
b00000000000000000000010000110011 '
b00000000000000000000000000000000 )
b00000000000000000000000000000000 *
b10 -
0/
01
12
b000 4
b0110011 5
b00010001 6
b00000 7
b00000 8
b01000 9
b00000000000000000000000000000000 Z
1\
0]
b00000000000000000000000000010000 m
b00000000000000000000000000000000 n
#7
1]
#8
b00000000000000000000000000010000 #
b00000000000000000000000000010100 $
b00000000000000000000000000010000 %
b00000000000000000000001010010011 '
b11 -
11
b0010011 5
b00011011 6
b00101 9
b00000000000000000000000000000000 B
0]
b00000000000000000000000000000000 f
b00000000000000000000000000010100 m
#9
1]
#10
b00000000000000000000000000010100 #
b00000000000000000000000000011000 $
b00000000000000000000000000100010 %
b00000000000000000000000000000111 &
b00000000011100101010001100010011 '
b00000000000000000000000000000111 (
b00000000000000000000000000001110 +
b0100 ,
b010 4
b00101 7
b00111 8
b00110 9
0]
b00000000000000000000000000011000 m
#11
1]
#12
b00000000000000000000000000011000 #
b00000000000000000000000000011100 $
b00000000000000000000000000100100 %
b00000000000000000000000000000000 &
b00000000000000110000011001100011 '
b00000000000000000000000000000110 (
b00000000000000000000000000001100 +
b0110 ,
b01 -
1.
01
02
b000 4
b1100011 5
b10001000 6
b00110 7
b00000 8
b01100 9
0]
b00000000000000000000000000100100 m
1p
#13
1]
#14
b00000000000000000000000000100100 #
b00000000000000000000000000101000 $
b00000000000000000000000000111000 %
b00000000000000000000000000001010 &
b00000000101000110110001100010011 '
b00000000000000000000000000001010 (
b00000000000000000000000000010100 +
b0001 ,
b11 -
0.
11
12
b110 4
b0010011 5
b00011011 6
b01010 8
b00110 9
b00000000000000000000000000001010 Z
0\
0]
b00000000000000000000000000101000 m
b00000000000000000000000000001010 n
0p
#15
1]
#16
b00000000000000000000000000101000 #
b00000000000000000000000000101100 $
b00000000000000000000000000101000 %
b00000000000000000000000000000000 &
b00000000000000010010010000000011 '
b00000000000000000000000000000000 (
b00000000000000000000000001111100 )
b00000000000000000000000000000000 +
b0010 ,
b00 -
10
b010 4
b0000011 5
b01100011 6
b00010 7
b00000 8
b01000 9
b00000000000000000000000000001010 @
b00000000000000000000000001111100 Z
1[
0]
b00000000000000000000000000001010 `
b00000000000000000000000000101100 m
b00000000000000000000000010100011 n
b00000000000000000000000010100011 o
#17
1]
#18
b00000000000000000000000000101100 #
b00000000000000000000000000110000 $
b00000000000000000000000000110100 %
b00000000000000000000000000000100 &
b00000000010000010000000100010011 '
b00000000000000000000000000000100 (
b00000000000000000000000000001000 +
b11 -
00
b000 4
b0010011 5
b00011011 6
b00100 8
b00010 9
b00000000000000000000000010100011 B
b00000000000000000000000010000000 Z
0[
0]
b00000000000000000000000010100011 f
b00000000000000000000000000110000 m
b00000000000000000000000010000000 n
#19
1]
#20
b00000000000000000000000000110000 #
b00000000000000000000000000110100 $
b00000000000000000000000000111010 %
b00000000000000000000000000000101 &
b00000000010100000000010010010011 '
b00000000000000000000000000000101 (
b00000000000000000000000000000000 )
b00000000000000000000000000001010 +
b00000 7
b00101 8
b01001 9
b00000000000000000000000010000000 <
b00000000000000000000000000000101 Z
0]
b00000000000000000000000010000000 i
b00000000000000000000000000110100 m
b00000000000000000000000000000101 n
#21
1]
#22
b00000000000000000000000000110100 #
b00000000000000000000000000111000 $
b00000000000000000000000000100000 %
b11111111111111111111111111110110 &
b11111111011000000000100100010011 '
b11111111111111111111111111110110 (
b11111111111111111111111111101100 +
13
b10110 8
b10010 9
b00000000000000000000000000000101 C
b11111111111111111111111111110110 Z
0]
b00000000000000000000000000000101 g
b00000000000000000000000000111000 m
b11111111111111111111111111110110 n
#23
1]
#24
b00000000000000000000000000111000 #
b00000000000000000000000000111100 $
b00000000000000000000000000111000 %
b01000001001001001000001110110011 '
b00000000000000000000000000000000 (
b00000000000000000000000000000101 )
b11111111111111111111111111110110 *
b00000000000000000000000000000000 +
b0110 ,
b10 -
01
b0110011 5
b00010001 6
b01001 7
b10010 8
b00111 9
b11111111111111111111111111110110 L
b00000000000000000000000000001111 Z
0]
b11111111111111111111111111110110 h
b00000000000000000000000000111100 m
b00000000000000000000000000001111 n
#25
1]
#26
b00000000000000000000000000111100 #
b00000000000000000000000001000000 $
b00000000000000000000000000111100 %
b00000001001001001111111000110011 '
b0000 ,
03
b111 4
b11100 9
b00000000000000000000000000001111 A
b00000000000000000000000000000100 Z
0]
b00000000000000000000000000001111 a
b00000000000000000000000001000000 m
b00000000000000000000000000000100 n
#27
1]
#28
b00000000000000000000000001000000 #
b00000000000000000000000001000100 $
b00000000000000000000000001000000 %
b00000001001001001110111010110011 '
b0001 ,
b110 4
b11101 9
b00000000000000000000000000000100 V
b11111111111111111111111111110111 Z
0]
b00000000000000000000000000000100 b
b00000000000000000000000001000100 m
b11111111111111111111111111110111 n
#29
1]
#30
b00000000000000000000000001000100 #
b00000000000000000000000001001000 $
b00000000000000000000000001000100 %
b00000001001001001010111100110011 '
b0100 ,
b010 4
b11110 9
b11111111111111111111111111110111 W
b00000000000000000000000000000000 Z
1\
0]
b11111111111111111111111111110111 c
b00000000000000000000000001001000 m
b00000000000000000000000000000000 n
#31
1]
#32
b00000000000000000000000001001000 #
b00000000000000000000000001001100 $
b00000000000000000000000001110000 %
b00000000000000000000000000010100 &
b00000001010001001111111110010011 '
b00000000000000000000000000010100 (
b00000000000000000000000000000000 *
b00000000000000000000000000101000 +
b0000 ,
b11 -
11
b111 4
b0010011 5
b00011011 6
b10100 8
b11111 9
b00000000000000000000000000000100 Z
0\
0]
b00000000000000000000000001001100 m
b00000000000000000000000000000100 n
#33
1]
#34
b00000000000000000000000001001100 #
b00000000000000000000000001010000 $
b00000000000000000000000001001100 %
b00000000000000000000000000000000 &
b00000000000000000000000000000000 '
b00000000000000000000000000000000 (
b00000000000000000000000000000000 )
b00000000000000000000000000000000 +
b0010 ,
b00 -
01
02
b000 4
b0000000 5
b00000000 6
b00000 7
b00000 8
b00000 9
b00000000000000000000000000000100 Y
b00000000000000000000000000000000 Z
1\
0]
b00000000000000000000000000000100 e
b00000000000000000000000001010000 m
b00000000000000000000000000000000 n
#35
1]
#36
b00000000000000000000000001010000 #
b00000000000000000000000001010100 $
b00000000000000000000000001010000 %
0]
b00000000000000000000000001010100 m
#37
1]
#38
b00000000000000000000000001010100 #
b00000000000000000000000001011000 $
b00000000000000000000000001010100 %
0]
b00000000000000000000000001011000 m
#39
1]
#40
b00000000000000000000000001011000 #
b00000000000000000000000001011100 $
b00000000000000000000000001011000 %
0]
b00000000000000000000000001011100 m
#41
1]
#42
b00000000000000000000000001011100 #
b00000000000000000000000001100000 $
b00000000000000000000000001011100 %
0]
b00000000000000000000000001100000 m
#43
1]
#44
b00000000000000000000000001100000 #
b00000000000000000000000001100100 $
b00000000000000000000000001100000 %
0]
b00000000000000000000000001100100 m
#45
1]
#46
b00000000000000000000000001100100 #
b00000000000000000000000001101000 $
b00000000000000000000000001100100 %
0]
b00000000000000000000000001101000 m
#47
1]
#48
b00000000000000000000000001101000 #
b00000000000000000000000001101100 $
b00000000000000000000000001101000 %
0]
b00000000000000000000000001101100 m
#49
1]
#50
b00000000000000000000000001101100 #
b00000000000000000000000001110000 $
b00000000000000000000000001101100 %
0]
b00000000000000000000000001110000 m
#51
1]
#52
b00000000000000000000000001110000 #
b00000000000000000000000001110100 $
b00000000000000000000000001110000 %
0]
b00000000000000000000000001110100 m
#53
1]
#54
b00000000000000000000000001110100 #
b00000000000000000000000001111000 $
b00000000000000000000000001110100 %
0]
b00000000000000000000000001111000 m
#55
1]
#56
b00000000000000000000000001111000 #
b00000000000000000000000001111100 $
b00000000000000000000000001111000 %
0]
b00000000000000000000000001111100 m
#57
1]
#58
b00000000000000000000000001111100 #
b00000000000000000000000010000000 $
b00000000000000000000000001111100 %
0]
b00000000000000000000000010000000 m
#59
1]
#60
b00000000000000000000000010000000 #
b00000000000000000000000010000100 $
b00000000000000000000000010000000 %
0]
b00000000000000000000000010000100 m
#61
1]
#62
b00000000000000000000000010000100 #
b00000000000000000000000010001000 $
b00000000000000000000000010000100 %
0]
b00000000000000000000000010001000 m
#63
1]
#64
b00000000000000000000000010001000 #
b00000000000000000000000010001100 $
b00000000000000000000000010001000 %
0]
b00000000000000000000000010001100 m
#65
1]
#66
b00000000000000000000000010001100 #
b00000000000000000000000010010000 $
b00000000000000000000000010001100 %
0]
b00000000000000000000000010010000 m
#67
1]
#68
b00000000000000000000000010010000 #
b00000000000000000000000010010100 $
b00000000000000000000000010010000 %
0]
b00000000000000000000000010010100 m
#69
1]
#70
b00000000000000000000000010010100 #
b00000000000000000000000010011000 $
b00000000000000000000000010010100 %
0]
b00000000000000000000000010011000 m
#71
1]
#72
b00000000000000000000000010011000 #
b00000000000000000000000010011100 $
b00000000000000000000000010011000 %
0]
b00000000000000000000000010011100 m
#73
1]
#74
b00000000000000000000000010011100 #
b00000000000000000000000010100000 $
b00000000000000000000000010011100 %
0]
b00000000000000000000000010100000 m
#75
1]
#76
b00000000000000000000000010100000 #
b00000000000000000000000010100100 $
b00000000000000000000000010100000 %
0]
b00000000000000000000000010100100 m
#77
1]
#78
b00000000000000000000000010100100 #
b00000000000000000000000010101000 $
b00000000000000000000000010100100 %
0]
b00000000000000000000000010101000 m
#79
1]
#80
b00000000000000000000000010101000 #
b00000000000000000000000010101100 $
b00000000000000000000000010101000 %
0]
b00000000000000000000000010101100 m
#81
1]
#82
b00000000000000000000000010101100 #
b00000000000000000000000010110000 $
b00000000000000000000000010101100 %
0]
b00000000000000000000000010110000 m
#83
1]
#84
b00000000000000000000000010110000 #
b00000000000000000000000010110100 $
b00000000000000000000000010110000 %
0]
b00000000000000000000000010110100 m
#85
1]
#86
b00000000000000000000000010110100 #
b00000000000000000000000010111000 $
b00000000000000000000000010110100 %
0]
b00000000000000000000000010111000 m
#87
1]
#88
b00000000000000000000000010111000 #
b00000000000000000000000010111100 $
b00000000000000000000000010111000 %
0]
b00000000000000000000000010111100 m
#89
1]
#90
b00000000000000000000000010111100 #
b00000000000000000000000011000000 $
b00000000000000000000000010111100 %
0]
b00000000000000000000000011000000 m
#91
1]
#92
b00000000000000000000000011000000 #
b00000000000000000000000011000100 $
b00000000000000000000000011000000 %
0]
b00000000000000000000000011000100 m
#93
1]
#94
b00000000000000000000000011000100 #
b00000000000000000000000011001000 $
b00000000000000000000000011000100 %
0]
b00000000000000000000000011001000 m
#95
1]
#96
b00000000000000000000000011001000 #
b00000000000000000000000011001100 $
b00000000000000000000000011001000 %
0]
b00000000000000000000000011001100 m
#97
1]
#98
b00000000000000000000000011001100 #
b00000000000000000000000011010000 $
b00000000000000000000000011001100 %
0]
b00000000000000000000000011010000 m
#99
1]
#100
b00000000000000000000000011010000 #
b00000000000000000000000011010100 $
b00000000000000000000000011010000 %
0]
b00000000000000000000000011010100 m
#101
1]
#102
b00000000000000000000000011010100 #
b00000000000000000000000011011000 $
b00000000000000000000000011010100 %
0]
b00000000000000000000000011011000 m
