lab4/waveform.vcd
$version Generated by VerilatedVcd $end
$timescale 1s $end
 $scope module TOP $end
  $var wire 1 '! clk $end
  $var wire 1 (! start $end
  $var wire 32 )! r[0] [31:0] $end
  $var wire 32 *! r[1] [31:0] $end
  $var wire 32 +! r[2] [31:0] $end
  $var wire 32 ,! r[3] [31:0] $end
  $var wire 32 -! r[4] [31:0] $end
  $var wire 32 .! r[5] [31:0] $end
  $var wire 32 /! r[6] [31:0] $end
  $var wire 32 0! r[7] [31:0] $end
  $var wire 32 1! r[8] [31:0] $end
  $var wire 32 2! r[9] [31:0] $end
  $var wire 32 3! r[10] [31:0] $end
  $var wire 32 4! r[11] [31:0] $end
  $var wire 32 5! r[12] [31:0] $end
  $var wire 32 6! r[13] [31:0] $end
  $var wire 32 7! r[14] [31:0] $end
  $var wire 32 8! r[15] [31:0] $end
  $var wire 32 9! r[16] [31:0] $end
  $var wire 32 :! r[17] [31:0] $end
  $var wire 32 ;! r[18] [31:0] $end
  $var wire 32 <! r[19] [31:0] $end
  $var wire 32 =! r[20] [31:0] $end
  $var wire 32 >! r[21] [31:0] $end
  $var wire 32 ?! r[22] [31:0] $end
  $var wire 32 @! r[23] [31:0] $end
  $var wire 32 A! r[24] [31:0] $end
  $var wire 32 B! r[25] [31:0] $end
  $var wire 32 C! r[26] [31:0] $end
  $var wire 32 D! r[27] [31:0] $end
  $var wire 32 E! r[28] [31:0] $end
  $var wire 32 F! r[29] [31:0] $end
  $var wire 32 G! r[30] [31:0] $end
  $var wire 32 H! r[31] [31:0] $end
  $scope module SingleCycleCPU $end
   $var wire 1 '! clk $end
   $var wire 1 (! start $end
   $var wire 32 )! r[0] [31:0] $end
   $var wire 32 *! r[1] [31:0] $end
   $var wire 32 +! r[2] [31:0] $end
   $var wire 32 ,! r[3] [31:0] $end
   $var wire 32 -! r[4] [31:0] $end
   $var wire 32 .! r[5] [31:0] $end
   $var wire 32 /! r[6] [31:0] $end
   $var wire 32 0! r[7] [31:0] $end
   $var wire 32 1! r[8] [31:0] $end
   $var wire 32 2! r[9] [31:0] $end
   $var wire 32 3! r[10] [31:0] $end
   $var wire 32 4! r[11] [31:0] $end
   $var wire 32 5! r[12] [31:0] $end
   $var wire 32 6! r[13] [31:0] $end
   $var wire 32 7! r[14] [31:0] $end
   $var wire 32 8! r[15] [31:0] $end
   $var wire 32 9! r[16] [31:0] $end
   $var wire 32 :! r[17] [31:0] $end
   $var wire 32 ;! r[18] [31:0] $end
   $var wire 32 <! r[19] [31:0] $end
   $var wire 32 =! r[20] [31:0] $end
   $var wire 32 >! r[21] [31:0] $end
   $var wire 32 ?! r[22] [31:0] $end
   $var wire 32 @! r[23] [31:0] $end
   $var wire 32 A! r[24] [31:0] $end
   $var wire 32 B! r[25] [31:0] $end
   $var wire 32 C! r[26] [31:0] $end
   $var wire 32 D! r[27] [31:0] $end
   $var wire 32 E! r[28] [31:0] $end
   $var wire 32 F! r[29] [31:0] $end
   $var wire 32 G! r[30] [31:0] $end
   $var wire 32 H! r[31] [31:0] $end
   $var wire 32 # PC_plus4_IF [31:0] $end
   $var wire 32 I! Mux_PC_out [31:0] $end
   $var wire 32 $ PC_IF [31:0] $end
   $var wire 32 % inst_IF [31:0] $end
   $var wire 1 & memRead_ID $end
   $var wire 1 ' memWrite_ID $end
   $var wire 1 ( regWrite_ID $end
   $var wire 1 ) SelA_ID $end
   $var wire 1 * SelB_ID $end
   $var wire 1 + stall_PC $end
   $var wire 1 , stall_ID $end
   $var wire 1 + stall_EX $end
   $var wire 2 - memtoReg_ID [1:0] $end
   $var wire 2 . ALUOp_ID [1:0] $end
   $var wire 32 / PC_ID [31:0] $end
   $var wire 32 0 inst_ID [31:0] $end
   $var wire 32 J! rs1_ID [31:0] $end
   $var wire 32 K! rs2_ID [31:0] $end
   $var wire 32 1 imm_ID [31:0] $end
   $var wire 1 2 memRead_EX $end
   $var wire 1 3 memWrite_EX $end
   $var wire 1 4 regWrite_EX $end
   $var wire 1 5 SelA_EX $end
   $var wire 1 6 SelB_EX $end
   $var wire 1 7 funct7 $end
   $var wire 1 v BrEq $end
   $var wire 1 w BrLt $end
   $var wire 1 x PCsel $end
   $var wire 2 8 memtoReg_EX [1:0] $end
   $var wire 2 9 ALUOp_EX [1:0] $end
   $var wire 2 y ForwardA [1:0] $end
   $var wire 2 z ForwardB [1:0] $end
   $var wire 3 : funct3 [2:0] $end
   $var wire 4 ; ALUCtl [3:0] $end
   $var wire 5 < writeReg_EX [4:0] $end
   $var wire 5 = rs1Addr_EX [4:0] $end
   $var wire 5 > rs2Addr_EX [4:0] $end
   $var wire 7 ? opcode_EX [6:0] $end
   $var wire 32 @ rs1_EX [31:0] $end
   $var wire 32 A rs2_EX [31:0] $end
   $var wire 32 B PC_EX [31:0] $end
   $var wire 32 C imm_EX [31:0] $end
   $var wire 32 { MuxForwardA_out [31:0] $end
   $var wire 32 | MuxForwardB_out [31:0] $end
   $var wire 32 } MuxSelA_out [31:0] $end
   $var wire 32 ~ MuxSelB_out [31:0] $end
   $var wire 32 !! ALUOut_EX [31:0] $end
   $var wire 1 "! memRead_MEM $end
   $var wire 1 D memWrite_MEM $end
   $var wire 1 E regWrite_MEM $end
   $var wire 2 F memtoReg_MEM [1:0] $end
   $var wire 5 G writeReg_MEM [4:0] $end
   $var wire 32 H rs2_MEM [31:0] $end
   $var wire 32 I PC_MEM [31:0] $end
   $var wire 32 #! ALUOut_MEM [31:0] $end
   $var wire 32 L! readData_MEM [31:0] $end
   $var wire 1 $! regWrite_WB $end
   $var wire 2 J memtoReg_WB [1:0] $end
   $var wire 5 %! writeReg_WB [4:0] $end
   $var wire 32 K ALUOut_WB [31:0] $end
   $var wire 32 L readData_WB [31:0] $end
   $var wire 32 M PC_WB [31:0] $end
   $var wire 32 N PC_plus4_WB [31:0] $end
   $var wire 32 &! writeData [31:0] $end
   $scope module m_ALU $end
    $var wire 4 ; ALUctl [3:0] $end
    $var wire 32 } A [31:0] $end
    $var wire 32 ~ B [31:0] $end
    $var wire 32 !! ALUOut [31:0] $end
   $upscope $end
   $scope module m_ALUCtrl $end
    $var wire 2 9 ALUOp [1:0] $end
    $var wire 1 7 funct7 $end
    $var wire 3 : funct3 [2:0] $end
    $var wire 4 ; ALUCtl [3:0] $end
   $upscope $end
   $scope module m_Adder_1 $end
    $var wire 32 $ a [31:0] $end
    $var wire 32 M! b [31:0] $end
    $var wire 32 # sum [31:0] $end
   $upscope $end
   $scope module m_Adder_2 $end
    $var wire 32 M a [31:0] $end
    $var wire 32 M! b [31:0] $end
    $var wire 32 N sum [31:0] $end
   $upscope $end
   $scope module m_BranchComp $end
    $var wire 32 { readData1 [31:0] $end
    $var wire 32 | readData2 [31:0] $end
    $var wire 1 v BrEq $end
    $var wire 1 w BrLt $end
   $upscope $end
   $scope module m_Control $end
    $var wire 7 O opcode [6:0] $end
    $var wire 1 + stall $end
    $var wire 1 & memRead $end
    $var wire 2 - memtoReg [1:0] $end
    $var wire 2 . ALUOp [1:0] $end
    $var wire 1 ' memWrite $end
    $var wire 1 ) SelA $end
    $var wire 1 * SelB $end
    $var wire 1 ( regWrite $end
    $var wire 9 P ctrl [8:0] $end
   $upscope $end
   $scope module m_Control2 $end
    $var wire 7 ? opcode [6:0] $end
    $var wire 3 : funct3 [2:0] $end
    $var wire 1 v BrEq $end
    $var wire 1 w BrLt $end
    $var wire 1 x PCsel $end
   $upscope $end
   $scope module m_DataMemory $end
    $var wire 1 (! rst $end
    $var wire 1 '! clk $end
    $var wire 1 D memWrite $end
    $var wire 1 "! memRead $end
    $var wire 32 #! address [31:0] $end
    $var wire 32 H writeData [31:0] $end
    $var wire 32 L! readData [31:0] $end
   $upscope $end
   $scope module m_EXReg $end
    $var wire 1 '! clk $end
    $var wire 1 (! rst $end
    $var wire 1 x flush $end
    $var wire 1 & memRead_in $end
    $var wire 1 ' memWrite_in $end
    $var wire 2 - memtoReg_in [1:0] $end
    $var wire 1 ( regWrite_in $end
    $var wire 2 . ALUOp_in [1:0] $end
    $var wire 1 ) SelA_in $end
    $var wire 1 * SelB_in $end
    $var wire 5 Q rs1Addr_in [4:0] $end
    $var wire 5 R rs2Addr_in [4:0] $end
    $var wire 32 J! rs1_in [31:0] $end
    $var wire 32 K! rs2_in [31:0] $end
    $var wire 32 1 imm_in [31:0] $end
    $var wire 7 O opcode_in [6:0] $end
    $var wire 1 S funct7_in $end
    $var wire 3 T funct3_in [2:0] $end
    $var wire 5 U writeReg_in [4:0] $end
    $var wire 32 / PC_in [31:0] $end
    $var wire 1 2 memRead_out $end
    $var wire 1 3 memWrite_out $end
    $var wire 2 8 memtoReg_out [1:0] $end
    $var wire 1 4 regWrite_out $end
    $var wire 2 9 ALUOp_out [1:0] $end
    $var wire 1 5 SelA_out $end
    $var wire 1 6 SelB_out $end
    $var wire 5 = rs1Addr_out [4:0] $end
    $var wire 5 > rs2Addr_out [4:0] $end
    $var wire 32 @ rs1_out [31:0] $end
    $var wire 32 A rs2_out [31:0] $end
    $var wire 32 C imm_out [31:0] $end
    $var wire 7 ? opcode_out [6:0] $end
    $var wire 1 7 funct7_out $end
    $var wire 3 : funct3_out [2:0] $end
    $var wire 5 < writeReg_out [4:0] $end
    $var wire 32 B PC_out [31:0] $end
   $upscope $end
   $scope module m_Forwarding $end
    $var wire 1 $! regWrite_WB $end
    $var wire 1 E regWrite_MEM $end
    $var wire 5 G rd_MEM [4:0] $end
    $var wire 5 %! rd_WB [4:0] $end
    $var wire 5 = rs1_EX [4:0] $end
    $var wire 5 > rs2_EX [4:0] $end
    $var wire 2 y ForwardA [1:0] $end
    $var wire 2 z ForwardB [1:0] $end
   $upscope $end
   $scope module m_HazardDetection $end
    $var wire 1 2 memRead_EX $end
    $var wire 5 Q rs1_ID [4:0] $end
    $var wire 5 R rs2_ID [4:0] $end
    $var wire 5 < rs2_EX [4:0] $end
    $var wire 1 , stall_ID $end
    $var wire 1 + stall_EX $end
    $var wire 1 + stall_PC $end
   $upscope $end
   $scope module m_IDReg $end
    $var wire 1 '! clk $end
    $var wire 1 (! rst $end
    $var wire 1 , stall $end
    $var wire 1 x flush $end
    $var wire 32 $ PC_in [31:0] $end
    $var wire 32 % inst_in [31:0] $end
    $var wire 32 / PC_out [31:0] $end
    $var wire 32 0 inst_out [31:0] $end
   $upscope $end
   $scope module m_ImmGen $end
    $var wire 32 0 inst [31:0] $end
    $var wire 32 1 imm [31:0] $end
    $var wire 7 O opcode [6:0] $end
   $upscope $end
   $scope module m_InstMem $end
    $var wire 32 $ readAddr [31:0] $end
    $var wire 32 % inst [31:0] $end
   $upscope $end
   $scope module m_MEMReg $end
    $var wire 1 '! clk $end
    $var wire 1 (! rst $end
    $var wire 1 2 memRead_in $end
    $var wire 1 3 memWrite_in $end
    $var wire 2 8 memtoReg_in [1:0] $end
    $var wire 1 4 regWrite_in $end
    $var wire 32 !! ALUResult_in [31:0] $end
    $var wire 32 | rs2_in [31:0] $end
    $var wire 5 < writeReg_in [4:0] $end
    $var wire 32 B PC_in [31:0] $end
    $var wire 1 "! memRead_out $end
    $var wire 1 D memWrite_out $end
    $var wire 2 F memtoReg_out [1:0] $end
    $var wire 1 E regWrite_out $end
    $var wire 32 #! ALUResult_out [31:0] $end
    $var wire 32 H rs2_out [31:0] $end
    $var wire 5 G writeReg_out [4:0] $end
    $var wire 32 I PC_out [31:0] $end
   $upscope $end
   $scope module m_Mux_ForwardA $end
    $var wire 32 N! size [31:0] $end
    $var wire 2 y sel [1:0] $end
    $var wire 32 @ s0 [31:0] $end
    $var wire 32 &! s1 [31:0] $end
    $var wire 32 #! s2 [31:0] $end
    $var wire 32 { out [31:0] $end
   $upscope $end
   $scope module m_Mux_ForwardB $end
    $var wire 32 N! size [31:0] $end
    $var wire 2 z sel [1:0] $end
    $var wire 32 A s0 [31:0] $end
    $var wire 32 &! s1 [31:0] $end
    $var wire 32 #! s2 [31:0] $end
    $var wire 32 | out [31:0] $end
   $upscope $end
   $scope module m_Mux_PC $end
    $var wire 32 N! size [31:0] $end
    $var wire 1 x sel $end
    $var wire 32 # s0 [31:0] $end
    $var wire 32 !! s1 [31:0] $end
    $var wire 32 I! out [31:0] $end
   $upscope $end
   $scope module m_Mux_SelA $end
    $var wire 32 N! size [31:0] $end
    $var wire 1 5 sel $end
    $var wire 32 { s0 [31:0] $end
    $var wire 32 B s1 [31:0] $end
    $var wire 32 } out [31:0] $end
   $upscope $end
   $scope module m_Mux_SelB $end
    $var wire 32 N! size [31:0] $end
    $var wire 1 6 sel $end
    $var wire 32 | s0 [31:0] $end
    $var wire 32 C s1 [31:0] $end
    $var wire 32 ~ out [31:0] $end
   $upscope $end
   $scope module m_Mux_WriteData $end
    $var wire 32 N! size [31:0] $end
    $var wire 2 J sel [1:0] $end
    $var wire 32 L s0 [31:0] $end
    $var wire 32 K s1 [31:0] $end
    $var wire 32 N s2 [31:0] $end
    $var wire 32 &! out [31:0] $end
   $upscope $end
   $scope module m_PC $end
    $var wire 1 '! clk $end
    $var wire 1 (! rst $end
    $var wire 1 + stall $end
    $var wire 32 I! pc_i [31:0] $end
    $var wire 32 $ pc_o [31:0] $end
   $upscope $end
   $scope module m_Register $end
    $var wire 1 '! clk $end
    $var wire 1 (! rst $end
    $var wire 1 $! regWrite $end
    $var wire 5 Q readReg1 [4:0] $end
    $var wire 5 R readReg2 [4:0] $end
    $var wire 5 %! writeReg [4:0] $end
    $var wire 32 &! writeData [31:0] $end
    $var wire 32 J! readData1 [31:0] $end
    $var wire 32 K! readData2 [31:0] $end
    $var wire 32 V regs[0] [31:0] $end
    $var wire 32 W regs[1] [31:0] $end
    $var wire 32 X regs[2] [31:0] $end
    $var wire 32 Y regs[3] [31:0] $end
    $var wire 32 Z regs[4] [31:0] $end
    $var wire 32 [ regs[5] [31:0] $end
    $var wire 32 \ regs[6] [31:0] $end
    $var wire 32 ] regs[7] [31:0] $end
    $var wire 32 ^ regs[8] [31:0] $end
    $var wire 32 _ regs[9] [31:0] $end
    $var wire 32 ` regs[10] [31:0] $end
    $var wire 32 a regs[11] [31:0] $end
    $var wire 32 b regs[12] [31:0] $end
    $var wire 32 c regs[13] [31:0] $end
    $var wire 32 d regs[14] [31:0] $end
    $var wire 32 e regs[15] [31:0] $end
    $var wire 32 f regs[16] [31:0] $end
    $var wire 32 g regs[17] [31:0] $end
    $var wire 32 h regs[18] [31:0] $end
    $var wire 32 i regs[19] [31:0] $end
    $var wire 32 j regs[20] [31:0] $end
    $var wire 32 k regs[21] [31:0] $end
    $var wire 32 l regs[22] [31:0] $end
    $var wire 32 m regs[23] [31:0] $end
    $var wire 32 n regs[24] [31:0] $end
    $var wire 32 o regs[25] [31:0] $end
    $var wire 32 p regs[26] [31:0] $end
    $var wire 32 q regs[27] [31:0] $end
    $var wire 32 r regs[28] [31:0] $end
    $var wire 32 s regs[29] [31:0] $end
    $var wire 32 t regs[30] [31:0] $end
    $var wire 32 u regs[31] [31:0] $end
   $upscope $end
   $scope module m_WBReg $end
    $var wire 1 '! clk $end
    $var wire 1 (! rst $end
    $var wire 2 F memtoReg_in [1:0] $end
    $var wire 1 E regWrite_in $end
    $var wire 32 #! ALUResult_in [31:0] $end
    $var wire 32 L! readData_in [31:0] $end
    $var wire 5 G writeReg_in [4:0] $end
    $var wire 32 I PC_in [31:0] $end
    $var wire 2 J memtoReg_out [1:0] $end
    $var wire 1 $! regWrite_out $end
    $var wire 32 K ALUResult_out [31:0] $end
    $var wire 32 L readData_out [31:0] $end
    $var wire 5 %! writeReg_out [4:0] $end
    $var wire 32 M PC_out [31:0] $end
   $upscope $end
  $upscope $end
 $upscope $end
$enddefinitions $end


#0
b00000000000000000000000000000100 #
b00000000000000000000000000000000 $
b00000000010000000000011000010011 %
0&
0'
0(
0)
0*
0+
0,
b00 -
b00 .
b00000000000000000000000000000000 /
b00000000000000000000000000000000 0
b00000000000000000000000000000000 1
02
03
04
05
06
07
b00 8
b00 9
b000 :
b0010 ;
b00000 <
b00000 =
b00000 >
b0000000 ?
b00000000000000000000000000000000 @
b00000000000000000000000000000000 A
b00000000000000000000000000000000 B
b00000000000000000000000000000000 C
0D
0E
b00 F
b00000 G
b00000000000000000000000000000000 H
b00000000000000000000000000000000 I
b00 J
b00000000000000000000000000000000 K
b00000000000000000000000000000000 L
b00000000000000000000000000000000 M
b00000000000000000000000000000100 N
b0000000 O
b000000000 P
b00000 Q
b00000 R
0S
b000 T
b00000 U
b00000000000000000000000000000000 V
b00000000000000000000000000000000 W
b00000000000000000000000000000000 X
b00000000000000000000000000000000 Y
b00000000000000000000000000000000 Z
b00000000000000000000000000000000 [
b00000000000000000000000000000000 \
b00000000000000000000000000000000 ]
b00000000000000000000000000000000 ^
b00000000000000000000000000000000 _
b00000000000000000000000000000000 `
b00000000000000000000000000000000 a
b00000000000000000000000000000000 b
b00000000000000000000000000000000 c
b00000000000000000000000000000000 d
b00000000000000000000000000000000 e
b00000000000000000000000000000000 f
b00000000000000000000000000000000 g
b00000000000000000000000000000000 h
b00000000000000000000000000000000 i
b00000000000000000000000000000000 j
b00000000000000000000000000000000 k
b00000000000000000000000000000000 l
b00000000000000000000000000000000 m
b00000000000000000000000000000000 n
b00000000000000000000000000000000 o
b00000000000000000000000000000000 p
b00000000000000000000000000000000 q
b00000000000000000000000000000000 r
b00000000000000000000000000000000 s
b00000000000000000000000000000000 t
b00000000000000000000000000000000 u
1v
0w
0x
b00 y
b00 z
b00000000000000000000000000000000 {
b00000000000000000000000000000000 |
b00000000000000000000000000000000 }
b00000000000000000000000000000000 ~
b00000000000000000000000000000000 !!
0"!
b00000000000000000000000000000000 #!
0$!
b00000 %!
b00000000000000000000000000000000 &!
0'!
1(!
b00000000000000000000000000000000 )!
b00000000000000000000000000000000 *!
b00000000000000000000000000000000 +!
b00000000000000000000000000000000 ,!
b00000000000000000000000000000000 -!
b00000000000000000000000000000000 .!
b00000000000000000000000000000000 /!
b00000000000000000000000000000000 0!
b00000000000000000000000000000000 1!
b00000000000000000000000000000000 2!
b00000000000000000000000000000000 3!
b00000000000000000000000000000000 4!
b00000000000000000000000000000000 5!
b00000000000000000000000000000000 6!
b00000000000000000000000000000000 7!
b00000000000000000000000000000000 8!
b00000000000000000000000000000000 9!
b00000000000000000000000000000000 :!
b00000000000000000000000000000000 ;!
b00000000000000000000000000000000 <!
b00000000000000000000000000000000 =!
b00000000000000000000000000000000 >!
b00000000000000000000000000000000 ?!
b00000000000000000000000000000000 @!
b00000000000000000000000000000000 A!
b00000000000000000000000000000000 B!
b00000000000000000000000000000000 C!
b00000000000000000000000000000000 D!
b00000000000000000000000000000000 E!
b00000000000000000000000000000000 F!
b00000000000000000000000000000000 G!
b00000000000000000000000000000000 H!
b00000000000000000000000000000100 I!
b00000000000000000000000000000000 J!
b00000000000000000000000000000000 K!
b00000000000000000000000000000000 L!
b00000000000000000000000000000100 M!
b00000000000000000000000000100000 N!
#1
b00000000000000000000000010000000 X
1'!
0(!
b00000000000000000000000010000000 +!
#2
0'!
1(!
#3
b00000000000000000000000000001000 #
b00000000000000000000000000000100 $
b00000000110000000000000011101111 %
1(
1*
b01 -
b11 .
b00000000010000000000011000010011 0
b00000000000000000000000000000100 1
b0010011 O
b001110101 P
b00100 R
b01100 U
1'!
b00000000000000000000000000001000 I!
#4
0'!
#5
b00000000000000000000000000001100 #
b00000000000000000000000000001000 $
b00000000010000000000000011101111 %
1)
b10 -
b00 .
b00000000000000000000000000000100 /
b00000000110000000000000011101111 0
b00000000000000000000000000001100 1
14
16
b01 8
b11 9
b01100 <
b00100 >
b0010011 ?
b00000000000000000000000000000100 C
b1101111 O
b010000111 P
b01100 R
b00001 U
b00000000000000000000000000000100 ~
b00000000000000000000000000000100 !!
1'!
b00000000000000000000000000001100 I!
#6
0'!
#7
b00000000000000000000000000010000 #
b00000000000000000000000000001100 $
b00000000000000000000000001101111 %
b00000000000000000000000000001000 /
b00000000010000000000000011101111 0
b00000000000000000000000000000100 1
15
b10 8
b00 9
b00001 <
b01100 >
b1101111 ?
b00000000000000000000000000000100 B
b00000000000000000000000000001100 C
1E
b01 F
b01100 G
b00100 R
0v
1w
1x
b10 z
b00000000000000000000000000000100 |
b00000000000000000000000000000100 }
b00000000000000000000000000001100 ~
b00000000000000000000000000010000 !!
b00000000000000000000000000000100 #!
1'!
b00000000000000000000000000010000 I!
#8
0'!
#9
b00000000000000000000000000010100 #
b00000000000000000000000000010000 $
b11111111010000010000000100010011 %
0)
0*
b01 -
b10 .
b00000000000000000000000000000000 /
b00000000000000000000000000110011 0
b00000000000000000000000000000000 1
04
05
06
b00 8
b00000 <
b00000 >
b0110011 ?
b00000000000000000000000000000000 B
b00000000000000000000000000000000 C
b10 F
b00001 G
b00000000000000000000000000000100 H
b00000000000000000000000000000100 I
b01 J
b00000000000000000000000000000100 K
b0110011 O
b001100001 P
b00000 R
b00000 U
1v
0w
0x
b00 z
b00000000000000000000000000000000 |
b00000000000000000000000000000000 }
b00000000000000000000000000000000 ~
b00000000000000000000000000000000 !!
b00000000000000000000000000010000 #!
1$!
b01100 %!
b00000000000000000000000000000100 &!
1'!
b00000000000000000000000000010100 I!
#10
b00000000000000000000000000000100 b
0'!
b00000000000000000000000000000100 5!
#11
b00000000000000000000000000011000 #
b00000000000000000000000000010100 $
b00000000000100010010010000100011 %
1*
b11 .
b00000000000000000000000000010000 /
b11111111010000010000000100010011 0
b11111111111111111111111111110100 1
14
b01 8
b10 9
0E
b00 F
b00000 G
b00000000000000000000000000000000 H
b00000000000000000000000000000000 I
b10 J
b00000000000000000000000000010000 K
b00000000000000000000000000000100 M
b00000000000000000000000000001000 N
b0010011 O
b001110101 P
b00010 Q
b10100 R
1S
b00010 U
b00000000000000000000000000000000 #!
b00001 %!
b00000000000000000000000000001000 &!
1'!
b00000000000000000000000000011000 I!
b00000000000000000000000010000000 J!
#12
b00000000000000000000000000001000 W
0'!
b00000000000000000000000000001000 *!
#13
b00000000000000000000000000011100 #
b00000000000000000000000000011000 $
b00000000100000010010001000100011 %
1'
0(
b00 -
b00 .
b00000000000000000000000000010100 /
b00000000000100010010010000100011 0
b00000000000000000000000000001000 1
16
17
b11 9
b00010 <
b00010 =
b10100 >
b0010011 ?
b00000000000000000000000010000000 @
b00000000000000000000000000010000 B
b11111111111111111111111111110100 C
1E
b01 F
b00 J
b00000000000000000000000000000000 K
b00000000000000000000000000000000 M
b00000000000000000000000000000100 N
b0100011 O
b000001100 P
b00001 R
0S
b010 T
b01000 U
0v
b00000000000000000000000010000000 {
b00000000000000000000000010000000 }
b11111111111111111111111111110100 ~
b00000000000000000000000001110100 !!
0$!
b00000 %!
b00000000000000000000000000000000 &!
1'!
b00000000000000000000000000011100 I!
b00000000000000000000000000001000 K!
#14
0'!
#15
b00000000000000000000000000100000 #
b00000000000000000000000000011100 $
b00000000000000000000010100010011 %
b00000000000000000000000000011000 /
b00000000100000010010001000100011 0
b00000000000000000000000000000100 1
13
04
07
b00 8
b00 9
b010 :
b01000 <
b00001 >
b0100011 ?
b00000000000000000000000000001000 A
b00000000000000000000000000010100 B
b00000000000000000000000000001000 C
b00010 G
b00000000000000000000000000010000 I
b01 J
b01000 R
b00100 U
b10 y
b00000000000000000000000001110100 {
b00000000000000000000000000001000 |
b00000000000000000000000001110100 }
b00000000000000000000000000001000 ~
b00000000000000000000000001111100 !!
b00000000000000000000000001110100 #!
1$!
1'!
b00000000000000000000000000100000 I!
b00000000000000000000000000000000 K!
#16
0'!
#17
b00000000000000000000000000100100 #
b00000000000000000000000000100000 $
b00000010000001100000011001100011 %
0'
1(
b01 -
b11 .
b00000000000000000000000000011100 /
b00000000000000000000010100010011 0
b00000000000000000000000000000000 1
b00100 <
b01000 >
b00000000000000000000000000000000 A
b00000000000000000000000000011000 B
b00000000000000000000000000000100 C
1D
0E
b00 F
b01000 G
b00000000000000000000000000001000 H
b00000000000000000000000000010100 I
b00000000000000000000000001110100 K
b00000000000000000000000000010000 M
b00000000000000000000000000010100 N
b0010011 O
b001110101 P
b00000 Q
b00000 R
b000 T
b01010 U
b01 y
b00000000000000000000000000000000 |
b00000000000000000000000000000100 ~
b00000000000000000000000001111000 !!
b00000000000000000000000001111100 #!
b00010 %!
b00000000000000000000000001110100 &!
1'!
b00000000000000000000000000100100 I!
b00000000000000000000000000000000 J!
#18
b00000000000000000000000001110100 X
0'!
b00000000000000000000000001110100 +!
#19
b00000000000000000000000000101000 #
b00000000000000000000000000100100 $
b00000000000101010000010100010011 %
0(
1)
b00 -
b00 .
b00000000000000000000000000100000 /
b00000010000001100000011001100011 0
b00000000000000000000000000101100 1
03
14
b01 8
b11 9
b000 :
b01010 <
b00000 =
b00000 >
b0010011 ?
b00000000000000000000000000000000 @
b00000000000000000000000000011100 B
b00000000000000000000000000000000 C
b00100 G
b00000000000000000000000000000000 H
b00000000000000000000000000011000 I
b00 J
b00000000000000000000000001111100 K
b00000000000000000000000000010100 M
b00000000000000000000000000011000 N
b1100011 O
b000000110 P
b01100 Q
b01100 U
1v
b00 y
b00000000000000000000000000000000 {
b00000000000000000000000000000000 }
b00000000000000000000000000000000 ~
b00000000000000000000000000000000 !!
b00000000000000000000000001111000 #!
0$!
b01000 %!
b00000000000000000000000000000000 &!
1'!
b00000000000000000000000000101000 I!
b00000000000000000000000000000100 J!
#20
0'!
#21
b00000000000000000000000000101100 #
b00000000000000000000000000101000 $
b00000010101001100000001001100011 %
1(
0)
b01 -
b11 .
b00000000000000000000000000100100 /
b00000000000101010000010100010011 0
b00000000000000000000000000000001 1
04
15
b00 8
b00 9
b01100 <
b01100 =
b1100011 ?
b00000000000000000000000000000100 @
b00000000000000000000000000100000 B
b00000000000000000000000000101100 C
0D
1E
b01 F
b01010 G
b00000000000000000000000000011100 I
b00000000000000000000000001111000 K
b00000000000000000000000000011000 M
b00000000000000000000000000011100 N
b0010011 O
b001110101 P
b01010 Q
b00001 R
b01010 U
0v
b00000000000000000000000000000100 {
b00000000000000000000000000100000 }
b00000000000000000000000000101100 ~
b00000000000000000000000001001100 !!
b00000000000000000000000000000000 #!
b00100 %!
1'!
b00000000000000000000000000101100 I!
b00000000000000000000000000000000 J!
b00000000000000000000000000001000 K!
#22
0'!
#23
b00000000000000000000000000110000 #
b00000000000000000000000000101100 $
b11111111111101100000011000010011 %
0(
1)
b00 -
b00 .
b00000000000000000000000000101000 /
b00000010101001100000001001100011 0
b00000000000000000000000000100100 1
14
05
b01 8
b11 9
b01010 <
b01010 =
b00001 >
b0010011 ?
b00000000000000000000000000000000 @
b00000000000000000000000000001000 A
b00000000000000000000000000100100 B
b00000000000000000000000000000001 C
0E
b00 F
b01100 G
b00000000000000000000000000100000 I
b01 J
b00000000000000000000000000000000 K
b00000000000000000000000000011100 M
b00000000000000000000000000100000 N
b1100011 O
b000000110 P
b01100 Q
b01010 R
b00100 U
1w
b01 y
b00000000000000000000000000000000 {
b00000000000000000000000000001000 |
b00000000000000000000000000000000 }
b00000000000000000000000000000001 ~
b00000000000000000000000000000001 !!
b00000000000000000000000001001100 #!
1$!
b01010 %!
1'!
b00000000000000000000000000110000 I!
b00000000000000000000000000000100 J!
b00000000000000000000000000000000 K!
#24
0'!
#25
b00000000000000000000000000110100 #
b00000000000000000000000000110000 $
b00000000110000010010000000100011 %
1(
0)
b01 -
b11 .
b00000000000000000000000000101100 /
b11111111111101100000011000010011 0
b11111111111111111111111111111111 1
04
15
b00 8
b00 9
b00100 <
b01100 =
b01010 >
b1100011 ?
b00000000000000000000000000000100 @
b00000000000000000000000000000000 A
b00000000000000000000000000101000 B
b00000000000000000000000000100100 C
1E
b01 F
b01010 G
b00000000000000000000000000001000 H
b00000000000000000000000000100100 I
b00 J
b00000000000000000000000001001100 K
b00000000000000000000000000100000 M
b00000000000000000000000000100100 N
b0010011 O
b001110101 P
b11111 R
1S
b01100 U
0w
b00 y
b10 z
b00000000000000000000000000000100 {
b00000000000000000000000000000001 |
b00000000000000000000000000101000 }
b00000000000000000000000000100100 ~
b00000000000000000000000001001100 !!
b00000000000000000000000000000001 #!
0$!
b01100 %!
1'!
b00000000000000000000000000110100 I!
#26
0'!
#27
b00000000000000000000000000111000 #
b00000000000000000000000000110100 $
b11111101110111111111000011101111 %
1'
0(
b00 -
b00 .
b00000000000000000000000000110000 /
b00000000110000010010000000100011 0
b00000000000000000000000000000000 1
14
05
17
b01 8
b11 9
b01100 <
b11111 >
b0010011 ?
b00000000000000000000000000101100 B
b11111111111111111111111111111111 C
0E
b00 F
b00100 G
b00000000000000000000000000000001 H
b00000000000000000000000000101000 I
b01 J
b00000000000000000000000000000001 K
b00000000000000000000000000100100 M
b00000000000000000000000000101000 N
b0100011 O
b000001100 P
b00010 Q
b01100 R
0S
b010 T
b00000 U
b00 z
b00000000000000000000000000000000 |
b00000000000000000000000000000100 }
b11111111111111111111111111111111 ~
b00000000000000000000000000000011 !!
b00000000000000000000000001001100 #!
1$!
b01010 %!
b00000000000000000000000000000001 &!
1'!
b00000000000000000000000000111000 I!
b00000000000000000000000001110100 J!
b00000000000000000000000000000100 K!
#28
b00000000000000000000000000000001 `
0'!
b00000000000000000000000000000001 3!
