lab2/waveform.vcd
$version Generated by VerilatedVcd $end
$timescale 1s $end

 $scope module TOP $end
  $var wire  1 _ clk $end
  $var wire 32 a r[0] [31:0] $end
  $var wire 32 k r[10] [31:0] $end
  $var wire 32 l r[11] [31:0] $end
  $var wire 32 m r[12] [31:0] $end
  $var wire 32 n r[13] [31:0] $end
  $var wire 32 o r[14] [31:0] $end
  $var wire 32 p r[15] [31:0] $end
  $var wire 32 q r[16] [31:0] $end
  $var wire 32 r r[17] [31:0] $end
  $var wire 32 s r[18] [31:0] $end
  $var wire 32 t r[19] [31:0] $end
  $var wire 32 b r[1] [31:0] $end
  $var wire 32 u r[20] [31:0] $end
  $var wire 32 v r[21] [31:0] $end
  $var wire 32 w r[22] [31:0] $end
  $var wire 32 x r[23] [31:0] $end
  $var wire 32 y r[24] [31:0] $end
  $var wire 32 z r[25] [31:0] $end
  $var wire 32 { r[26] [31:0] $end
  $var wire 32 | r[27] [31:0] $end
  $var wire 32 } r[28] [31:0] $end
  $var wire 32 ~ r[29] [31:0] $end
  $var wire 32 c r[2] [31:0] $end
  $var wire 32 !! r[30] [31:0] $end
  $var wire 32 "! r[31] [31:0] $end
  $var wire 32 d r[3] [31:0] $end
  $var wire 32 e r[4] [31:0] $end
  $var wire 32 f r[5] [31:0] $end
  $var wire 32 g r[6] [31:0] $end
  $var wire 32 h r[7] [31:0] $end
  $var wire 32 i r[8] [31:0] $end
  $var wire 32 j r[9] [31:0] $end
  $var wire  1 ` start $end
  $scope module SingleCycleCPU $end
   $var wire  4 + ALUCtl [3:0] $end
   $var wire  2 , ALUOp [1:0] $end
   $var wire 32 ] ALU_Out [31:0] $end
   $var wire  1 4 BrEq $end
   $var wire  1 3 BrLt $end
   $var wire 32 ( Imm [31:0] $end
   $var wire 32 ' Ins [31:0] $end
   $var wire 32 \ MuxPC_Out [31:0] $end
   $var wire 32 % MuxSelA_Out [31:0] $end
   $var wire 32 & MuxSelB_Out [31:0] $end
   $var wire 32 # PC [31:0] $end
   $var wire  1 . PCSel $end
   $var wire 32 $ PC_plus4 [31:0] $end
   $var wire  1 0 SelA $end
   $var wire  1 1 SelB $end
   $var wire  1 _ clk $end
   $var wire  1 ^ memRead $end
   $var wire  1 / memWrite $end
   $var wire  2 - memtoReg [1:0] $end
   $var wire 32 a r[0] [31:0] $end
   $var wire 32 k r[10] [31:0] $end
   $var wire 32 l r[11] [31:0] $end
   $var wire 32 m r[12] [31:0] $end
   $var wire 32 n r[13] [31:0] $end
   $var wire 32 o r[14] [31:0] $end
   $var wire 32 p r[15] [31:0] $end
   $var wire 32 q r[16] [31:0] $end
   $var wire 32 r r[17] [31:0] $end
   $var wire 32 s r[18] [31:0] $end
   $var wire 32 t r[19] [31:0] $end
   $var wire 32 b r[1] [31:0] $end
   $var wire 32 u r[20] [31:0] $end
   $var wire 32 v r[21] [31:0] $end
   $var wire 32 w r[22] [31:0] $end
   $var wire 32 x r[23] [31:0] $end
   $var wire 32 y r[24] [31:0] $end
   $var wire 32 z r[25] [31:0] $end
   $var wire 32 { r[26] [31:0] $end
   $var wire 32 | r[27] [31:0] $end
   $var wire 32 } r[28] [31:0] $end
   $var wire 32 ~ r[29] [31:0] $end
   $var wire 32 c r[2] [31:0] $end
   $var wire 32 !! r[30] [31:0] $end
   $var wire 32 "! r[31] [31:0] $end
   $var wire 32 d r[3] [31:0] $end
   $var wire 32 e r[4] [31:0] $end
   $var wire 32 f r[5] [31:0] $end
   $var wire 32 g r[6] [31:0] $end
   $var wire 32 h r[7] [31:0] $end
   $var wire 32 i r[8] [31:0] $end
   $var wire 32 j r[9] [31:0] $end
   $var wire 32 $! readData [31:0] $end
   $var wire 32 ) readData1 [31:0] $end
   $var wire 32 * readData2 [31:0] $end
   $var wire  1 2 regWrite $end
   $var wire  1 ` start $end
   $var wire 32 #! writeData [31:0] $end
   $scope module branch_Comp $end
    $var wire  1 4 BrEq $end
    $var wire  1 3 BrLt $end
    $var wire 32 ) readData1 [31:0] $end
    $var wire 32 * readData2 [31:0] $end
   $upscope $end
   $scope module m_ALU $end
    $var wire 32 % A [31:0] $end
    $var wire 32 ] ALUOut [31:0] $end
    $var wire  4 + ALUctl [3:0] $end
    $var wire 32 & B [31:0] $end
   $upscope $end
   $scope module m_ALUCtrl $end
    $var wire  4 + ALUCtl [3:0] $end
    $var wire  2 , ALUOp [1:0] $end
    $var wire  3 6 funct3 [2:0] $end
    $var wire  1 5 funct7 $end
   $upscope $end
   $scope module m_Adder_1 $end
    $var wire 32 # a [31:0] $end
    $var wire 32 %! b [31:0] $end
    $var wire 32 $ sum [31:0] $end
   $upscope $end
   $scope module m_Control $end
    $var wire  2 , ALUOp [1:0] $end
    $var wire  1 4 BrEq $end
    $var wire  1 3 BrLt $end
    $var wire  1 . PCSel $end
    $var wire  1 0 SelA $end
    $var wire  1 1 SelB $end
    $var wire 10 8 ctrl [9:0] $end
    $var wire  3 6 funct3 [2:0] $end
    $var wire  1 ^ memRead $end
    $var wire  1 / memWrite $end
    $var wire  2 - memtoReg [1:0] $end
    $var wire  7 7 opcode [6:0] $end
    $var wire  1 2 regWrite $end
   $upscope $end
   $scope module m_DataMemory $end
    $var wire 32 ] address [31:0] $end
    $var wire  1 _ clk $end
    $var wire  1 ^ memRead $end
    $var wire  1 / memWrite $end
    $var wire 32 $! readData [31:0] $end
    $var wire  1 ` rst $end
    $var wire 32 * writeData [31:0] $end
   $upscope $end
   $scope module m_ImmGen $end
    $var wire 32 ( imm [31:0] $end
    $var wire 32 ' inst [31:0] $end
    $var wire  7 7 opcode [6:0] $end
   $upscope $end
   $scope module m_InstMem $end
    $var wire 32 ' inst [31:0] $end
    $var wire 32 # readAddr [31:0] $end
   $upscope $end
   $scope module m_Mux_PC $end
    $var wire 32 \ out [31:0] $end
    $var wire 32 $ s0 [31:0] $end
    $var wire 32 ] s1 [31:0] $end
    $var wire  1 . sel $end
    $var wire 32 &! size [31:0] $end
   $upscope $end
   $scope module m_Mux_SelA $end
    $var wire 32 % out [31:0] $end
    $var wire 32 ) s0 [31:0] $end
    $var wire 32 # s1 [31:0] $end
    $var wire  1 0 sel $end
    $var wire 32 &! size [31:0] $end
   $upscope $end
   $scope module m_Mux_SelB $end
    $var wire 32 & out [31:0] $end
    $var wire 32 * s0 [31:0] $end
    $var wire 32 ( s1 [31:0] $end
    $var wire  1 1 sel $end
    $var wire 32 &! size [31:0] $end
   $upscope $end
   $scope module m_Mux_WriteData $end
    $var wire 32 #! out [31:0] $end
    $var wire 32 ] s0 [31:0] $end
    $var wire 32 $! s1 [31:0] $end
    $var wire 32 $ s2 [31:0] $end
    $var wire  2 - sel [1:0] $end
    $var wire 32 &! size [31:0] $end
   $upscope $end
   $scope module m_PC $end
    $var wire  1 _ clk $end
    $var wire 32 \ pc_i [31:0] $end
    $var wire 32 # pc_o [31:0] $end
    $var wire  1 ` rst $end
   $upscope $end
   $scope module m_Register $end
    $var wire  1 _ clk $end
    $var wire 32 ) readData1 [31:0] $end
    $var wire 32 * readData2 [31:0] $end
    $var wire  5 9 readReg1 [4:0] $end
    $var wire  5 : readReg2 [4:0] $end
    $var wire  1 2 regWrite $end
    $var wire 32 < regs[0] [31:0] $end
    $var wire 32 F regs[10] [31:0] $end
    $var wire 32 G regs[11] [31:0] $end
    $var wire 32 H regs[12] [31:0] $end
    $var wire 32 I regs[13] [31:0] $end
    $var wire 32 J regs[14] [31:0] $end
    $var wire 32 K regs[15] [31:0] $end
    $var wire 32 L regs[16] [31:0] $end
    $var wire 32 M regs[17] [31:0] $end
    $var wire 32 N regs[18] [31:0] $end
    $var wire 32 O regs[19] [31:0] $end
    $var wire 32 = regs[1] [31:0] $end
    $var wire 32 P regs[20] [31:0] $end
    $var wire 32 Q regs[21] [31:0] $end
    $var wire 32 R regs[22] [31:0] $end
    $var wire 32 S regs[23] [31:0] $end
    $var wire 32 T regs[24] [31:0] $end
    $var wire 32 U regs[25] [31:0] $end
    $var wire 32 V regs[26] [31:0] $end
    $var wire 32 W regs[27] [31:0] $end
    $var wire 32 X regs[28] [31:0] $end
    $var wire 32 Y regs[29] [31:0] $end
    $var wire 32 > regs[2] [31:0] $end
    $var wire 32 Z regs[30] [31:0] $end
    $var wire 32 [ regs[31] [31:0] $end
    $var wire 32 ? regs[3] [31:0] $end
    $var wire 32 @ regs[4] [31:0] $end
    $var wire 32 A regs[5] [31:0] $end
    $var wire 32 B regs[6] [31:0] $end
    $var wire 32 C regs[7] [31:0] $end
    $var wire 32 D regs[8] [31:0] $end
    $var wire 32 E regs[9] [31:0] $end
    $var wire  1 ` rst $end
    $var wire 32 #! writeData [31:0] $end
    $var wire  5 ; writeReg [4:0] $end
   $upscope $end
  $upscope $end
 $upscope $end
$enddefinitions $end


#0
b00000000000000000000000000000000 #
b00000000000000000000000000000100 $
b00000000000000000000000000000000 %
b00000000000000000000000000000100 &
b00000000010000000000011000010011 '
b00000000000000000000000000000100 (
b00000000000000000000000000000000 )
b00000000000000000000000000000000 *
b0010 +
b11 ,
b00 -
0.
0/
00
11
12
03
14
05
b000 6
b0010011 7
b0000110101 8
b00000 9
b00100 :
b01100 ;
b00000000000000000000000000000000 <
b00000000000000000000000000000000 =
b00000000000000000000000000000000 >
b00000000000000000000000000000000 ?
b00000000000000000000000000000000 @
b00000000000000000000000000000000 A
b00000000000000000000000000000000 B
b00000000000000000000000000000000 C
b00000000000000000000000000000000 D
b00000000000000000000000000000000 E
b00000000000000000000000000000000 F
b00000000000000000000000000000000 G
b00000000000000000000000000000000 H
b00000000000000000000000000000000 I
b00000000000000000000000000000000 J
b00000000000000000000000000000000 K
b00000000000000000000000000000000 L
b00000000000000000000000000000000 M
b00000000000000000000000000000000 N
b00000000000000000000000000000000 O
b00000000000000000000000000000000 P
b00000000000000000000000000000000 Q
b00000000000000000000000000000000 R
b00000000000000000000000000000000 S
b00000000000000000000000000000000 T
b00000000000000000000000000000000 U
b00000000000000000000000000000000 V
b00000000000000000000000000000000 W
b00000000000000000000000000000000 X
b00000000000000000000000000000000 Y
b00000000000000000000000000000000 Z
b00000000000000000000000000000000 [
b00000000000000000000000000000100 \
b00000000000000000000000000000100 ]
0^
0_
1`
b00000000000000000000000000000000 a
b00000000000000000000000000000000 b
b00000000000000000000000000000000 c
b00000000000000000000000000000000 d
b00000000000000000000000000000000 e
b00000000000000000000000000000000 f
b00000000000000000000000000000000 g
b00000000000000000000000000000000 h
b00000000000000000000000000000000 i
b00000000000000000000000000000000 j
b00000000000000000000000000000000 k
b00000000000000000000000000000000 l
b00000000000000000000000000000000 m
b00000000000000000000000000000000 n
b00000000000000000000000000000000 o
b00000000000000000000000000000000 p
b00000000000000000000000000000000 q
b00000000000000000000000000000000 r
b00000000000000000000000000000000 s
b00000000000000000000000000000000 t
b00000000000000000000000000000000 u
b00000000000000000000000000000000 v
b00000000000000000000000000000000 w
b00000000000000000000000000000000 x
b00000000000000000000000000000000 y
b00000000000000000000000000000000 z
b00000000000000000000000000000000 {
b00000000000000000000000000000000 |
b00000000000000000000000000000000 }
b00000000000000000000000000000000 ~
b00000000000000000000000000000000 !!
b00000000000000000000000000000000 "!
b00000000000000000000000000000100 #!
b00000000000000000000000000000000 $!
b00000000000000000000000000000100 %!
b00000000000000000000000000100000 &!
#1
b00000000000000000000000010000000 >
1_
0`
b00000000000000000000000010000000 c
#2
b00000000000000000000000000000100 #
b00000000000000000000000000001000 $
b00000000000000000000000000000100 %
b00000000000000000000000000001100 &
b00000000110000000000000011101111 '
b00000000000000000000000000001100 (
b00000000000000000000000000000100 *
b00 ,
b11 -
1.
10
13
04
b1101111 7
b1011000111 8
b01100 :
b00001 ;
b00000000000000000000000000000100 H
b00000000000000000000000000010000 \
b00000000000000000000000000010000 ]
0_
1`
b00000000000000000000000000000100 m
b00000000000000000000000000001000 #!
#3
1_
#4
b00000000000000000000000000010000 #
b00000000000000000000000000010100 $
b00000000000000000000000010000000 %
b11111111111111111111111111110100 &
b11111111010000010000000100010011 '
b11111111111111111111111111110100 (
b00000000000000000000000010000000 )
b00000000000000000000000000000000 *
b11 ,
b00 -
0.
00
03
15
b0010011 7
b0000110101 8
b00010 9
b10100 :
b00010 ;
b00000000000000000000000000001000 =
b00000000000000000000000000010100 \
b00000000000000000000000001110100 ]
0_
b00000000000000000000000000001000 b
b00000000000000000000000001110100 #!
#5
1_
#6
b00000000000000000000000000010100 #
b00000000000000000000000000011000 $
b00000000000000000000000001110100 %
b00000000000000000000000000001000 &
b00000000000100010010010000100011 '
b00000000000000000000000000001000 (
b00000000000000000000000001110100 )
b00000000000000000000000000001000 *
b00 ,
1/
02
05
b010 6
b0100011 7
b0000001100 8
b00001 :
b01000 ;
b00000000000000000000000001110100 >
b00000000000000000000000000011000 \
b00000000000000000000000001111100 ]
0_
b00000000000000000000000001110100 c
b00000000000000000000000001111100 #!
#7
1_
#8
b00000000000000000000000000011000 #
b00000000000000000000000000011100 $
b00000000000000000000000000000100 &
b00000000100000010010001000100011 '
b00000000000000000000000000000100 (
b00000000000000000000000000000000 *
b01000 :
b00100 ;
b00000000000000000000000000011100 \
b00000000000000000000000001111000 ]
0_
b00000000000000000000000001111000 #!
#9
1_
#10
b00000000000000000000000000011100 #
b00000000000000000000000000100000 $
b00000000000000000000000000000000 %
b00000000000000000000000000000000 &
b00000000000000000000010100010011 '
b00000000000000000000000000000000 (
b00000000000000000000000000000000 )
b11 ,
0/
12
14
b000 6
b0010011 7
b0000110101 8
b00000 9
b00000 :
b01010 ;
b00000000000000000000000000100000 \
b00000000000000000000000000000000 ]
0_
b00000000000000000000000000000000 #!
#11
1_
#12
b00000000000000000000000000100000 #
b00000000000000000000000000100100 $
b00000000000000000000000000100000 %
b00000000000000000000000000101100 &
b00000010000001100000011001100011 '
b00000000000000000000000000101100 (
b00000000000000000000000000000100 )
b00 ,
10
02
04
b1100011 7
b0000000110 8
b01100 9
b01100 ;
b00000000000000000000000000100100 \
b00000000000000000000000001001100 ]
0_
b00000000000000000000000001001100 #!
#13
1_
#14
b00000000000000000000000000100100 #
b00000000000000000000000000101000 $
b00000000000000000000000000000000 %
b00000000000000000000000000000001 &
b00000000000101010000010100010011 '
b00000000000000000000000000000001 (
b00000000000000000000000000000000 )
b00000000000000000000000000001000 *
b11 ,
00
12
13
b0010011 7
b0000110101 8
b01010 9
b00001 :
b01010 ;
b00000000000000000000000000101000 \
b00000000000000000000000000000001 ]
0_
b00000000000000000000000000000001 #!
#15
1_
#16
b00000000000000000000000000101000 #
b00000000000000000000000000101100 $
b00000000000000000000000000101000 %
b00000000000000000000000000100100 &
b00000010101001100000001001100011 '
b00000000000000000000000000100100 (
b00000000000000000000000000000100 )
b00000000000000000000000000000001 *
b00 ,
10
02
03
b1100011 7
b0000000110 8
b01100 9
b01010 :
b00100 ;
b00000000000000000000000000000001 F
b00000000000000000000000000101100 \
b00000000000000000000000001001100 ]
0_
b00000000000000000000000000000001 k
b00000000000000000000000001001100 #!
#17
1_
#18
b00000000000000000000000000101100 #
b00000000000000000000000000110000 $
b00000000000000000000000000000100 %
b11111111111111111111111111111111 &
b11111111111101100000011000010011 '
b11111111111111111111111111111111 (
b00000000000000000000000000000000 *
b11 ,
00
12
15
b0010011 7
b0000110101 8
b11111 :
b01100 ;
b00000000000000000000000000110000 \
b00000000000000000000000000000011 ]
0_
b00000000000000000000000000000011 #!
#19
1_
#20
b00000000000000000000000000110000 #
b00000000000000000000000000110100 $
b00000000000000000000000001110100 %
b00000000000000000000000000000000 &
b00000000110000010010000000100011 '
b00000000000000000000000000000000 (
b00000000000000000000000001110100 )
b00000000000000000000000000000011 *
b00 ,
1/
02
05
b010 6
b0100011 7
b0000001100 8
b00010 9
b01100 :
b00000 ;
b00000000000000000000000000000011 H
b00000000000000000000000000110100 \
b00000000000000000000000001110100 ]
0_
b00000000000000000000000000000011 m
b00000000000000000000000001110100 #!
#21
1_
#22
b00000000000000000000000000110100 #
b00000000000000000000000000111000 $
b00000000000000000000000000110100 %
b11111111111111111111111111011100 &
b11111101110111111111000011101111 '
b11111111111111111111111111011100 (
b00000000000000000000000000000000 )
b00000000000000000000000000000000 *
b11 -
1.
0/
10
12
14
15
b111 6
b1101111 7
b1011000111 8
b11111 9
b11101 :
b00001 ;
b00000000000000000000000000010000 \
b00000000000000000000000000010000 ]
0_
b00000000000000000000000000111000 #!
#23
1_
#24
b00000000000000000000000000010000 #
b00000000000000000000000000010100 $
b00000000000000000000000001110100 %
b11111111111111111111111111110100 &
b11111111010000010000000100010011 '
b11111111111111111111111111110100 (
b00000000000000000000000001110100 )
b11 ,
b00 -
0.
00
04
b000 6
b0010011 7
b0000110101 8
b00010 9
b10100 :
b00010 ;
b00000000000000000000000000111000 =
b00000000000000000000000000010100 \
b00000000000000000000000001101000 ]
0_
b00000000000000000000000000111000 b
b00000000000000000000000001101000 #!
#25
1_
#26
b00000000000000000000000000010100 #
b00000000000000000000000000011000 $
b00000000000000000000000001101000 %
b00000000000000000000000000001000 &
b00000000000100010010010000100011 '
b00000000000000000000000000001000 (
b00000000000000000000000001101000 )
b00000000000000000000000000111000 *
b00 ,
1/
02
05
b010 6
b0100011 7
b0000001100 8
b00001 :
b01000 ;
b00000000000000000000000001101000 >
b00000000000000000000000000011000 \
b00000000000000000000000001110000 ]
0_
b00000000000000000000000001101000 c
b00000000000000000000000001110000 #!
#27
1_
#28
b00000000000000000000000000011000 #
b00000000000000000000000000011100 $
b00000000000000000000000000000100 &
b00000000100000010010001000100011 '
b00000000000000000000000000000100 (
b00000000000000000000000000000000 *
b01000 :
b00100 ;
b00000000000000000000000000011100 \
b00000000000000000000000001101100 ]
0_
b00000000000000000000000001101100 #!
#29
1_
#30
b00000000000000000000000000011100 #
b00000000000000000000000000100000 $
b00000000000000000000000000000000 %
b00000000000000000000000000000000 &
b00000000000000000000010100010011 '
b00000000000000000000000000000000 (
b00000000000000000000000000000000 )
b11 ,
0/
12
14
b000 6
b0010011 7
b0000110101 8
b00000 9
b00000 :
b01010 ;
b00000000000000000000000000100000 \
b00000000000000000000000000000000 ]
0_
b00000000000000000000000000000000 #!
#31
1_
#32
b00000000000000000000000000100000 #
b00000000000000000000000000100100 $
b00000000000000000000000000100000 %
b00000000000000000000000000101100 &
b00000010000001100000011001100011 '
b00000000000000000000000000101100 (
b00000000000000000000000000000011 )
b00 ,
10
02
04
b1100011 7
b0000000110 8
b01100 9
b01100 ;
b00000000000000000000000000000000 F
b00000000000000000000000000100100 \
b00000000000000000000000001001100 ]
0_
b00000000000000000000000000000000 k
b00000000000000000000000001001100 #!
#33
1_
#34
b00000000000000000000000000100100 #
b00000000000000000000000000101000 $
b00000000000000000000000000000000 %
b00000000000000000000000000000001 &
b00000000000101010000010100010011 '
b00000000000000000000000000000001 (
b00000000000000000000000000000000 )
b00000000000000000000000000111000 *
b11 ,
00
12
13
b0010011 7
b0000110101 8
b01010 9
b00001 :
b01010 ;
b00000000000000000000000000101000 \
b00000000000000000000000000000001 ]
0_
b00000000000000000000000000000001 #!
#35
1_
#36
b00000000000000000000000000101000 #
b00000000000000000000000000101100 $
b00000000000000000000000000101000 %
b00000000000000000000000000100100 &
b00000010101001100000001001100011 '
b00000000000000000000000000100100 (
b00000000000000000000000000000011 )
b00000000000000000000000000000001 *
b00 ,
10
02
03
b1100011 7
b0000000110 8
b01100 9
b01010 :
b00100 ;
b00000000000000000000000000000001 F
b00000000000000000000000000101100 \
b00000000000000000000000001001100 ]
0_
b00000000000000000000000000000001 k
b00000000000000000000000001001100 #!
#37
1_
#38
b00000000000000000000000000101100 #
b00000000000000000000000000110000 $
b00000000000000000000000000000011 %
b11111111111111111111111111111111 &
b11111111111101100000011000010011 '
b11111111111111111111111111111111 (
b00000000000000000000000000000000 *
b11 ,
00
12
15
b0010011 7
b0000110101 8
b11111 :
b01100 ;
b00000000000000000000000000110000 \
b00000000000000000000000000000010 ]
0_
b00000000000000000000000000000010 #!
#39
1_
#40
b00000000000000000000000000110000 #
b00000000000000000000000000110100 $
b00000000000000000000000001101000 %
b00000000000000000000000000000000 &
b00000000110000010010000000100011 '
b00000000000000000000000000000000 (
b00000000000000000000000001101000 )
b00000000000000000000000000000010 *
b00 ,
1/
02
05
b010 6
b0100011 7
b0000001100 8
b00010 9
b01100 :
b00000 ;
b00000000000000000000000000000010 H
b00000000000000000000000000110100 \
b00000000000000000000000001101000 ]
0_
b00000000000000000000000000000010 m
b00000000000000000000000001101000 #!
#41
1_
#42
b00000000000000000000000000110100 #
b00000000000000000000000000111000 $
b00000000000000000000000000110100 %
b11111111111111111111111111011100 &
b11111101110111111111000011101111 '
b11111111111111111111111111011100 (
b00000000000000000000000000000000 )
b00000000000000000000000000000000 *
b11 -
1.
0/
10
12
14
15
b111 6
b1101111 7
b1011000111 8
b11111 9
b11101 :
b00001 ;
b00000000000000000000000000010000 \
b00000000000000000000000000010000 ]
0_
b00000000000000000000000000111000 #!
#43
1_
#44
b00000000000000000000000000010000 #
b00000000000000000000000000010100 $
b00000000000000000000000001101000 %
b11111111111111111111111111110100 &
b11111111010000010000000100010011 '
b11111111111111111111111111110100 (
b00000000000000000000000001101000 )
b11 ,
b00 -
0.
00
04
b000 6
b0010011 7
b0000110101 8
b00010 9
b10100 :
b00010 ;
b00000000000000000000000000010100 \
b00000000000000000000000001011100 ]
0_
b00000000000000000000000001011100 #!
#45
1_
#46
b00000000000000000000000000010100 #
b00000000000000000000000000011000 $
b00000000000000000000000001011100 %
b00000000000000000000000000001000 &
b00000000000100010010010000100011 '
b00000000000000000000000000001000 (
b00000000000000000000000001011100 )
b00000000000000000000000000111000 *
b00 ,
1/
02
05
b010 6
b0100011 7
b0000001100 8
b00001 :
b01000 ;
b00000000000000000000000001011100 >
b00000000000000000000000000011000 \
b00000000000000000000000001100100 ]
0_
b00000000000000000000000001011100 c
b00000000000000000000000001100100 #!
#47
1_
#48
b00000000000000000000000000011000 #
b00000000000000000000000000011100 $
b00000000000000000000000000000100 &
b00000000100000010010001000100011 '
b00000000000000000000000000000100 (
b00000000000000000000000000000000 *
b01000 :
b00100 ;
b00000000000000000000000000011100 \
b00000000000000000000000001100000 ]
0_
b00000000000000000000000001100000 #!
#49
1_
#50
b00000000000000000000000000011100 #
b00000000000000000000000000100000 $
b00000000000000000000000000000000 %
b00000000000000000000000000000000 &
b00000000000000000000010100010011 '
b00000000000000000000000000000000 (
b00000000000000000000000000000000 )
b11 ,
0/
12
14
b000 6
b0010011 7
b0000110101 8
b00000 9
b00000 :
b01010 ;
b00000000000000000000000000100000 \
b00000000000000000000000000000000 ]
0_
b00000000000000000000000000000000 #!
#51
1_
#52
b00000000000000000000000000100000 #
b00000000000000000000000000100100 $
b00000000000000000000000000100000 %
b00000000000000000000000000101100 &
b00000010000001100000011001100011 '
b00000000000000000000000000101100 (
b00000000000000000000000000000010 )
b00 ,
10
02
04
b1100011 7
b0000000110 8
b01100 9
b01100 ;
b00000000000000000000000000000000 F
b00000000000000000000000000100100 \
b00000000000000000000000001001100 ]
0_
b00000000000000000000000000000000 k
b00000000000000000000000001001100 #!
#53
1_
#54
b00000000000000000000000000100100 #
b00000000000000000000000000101000 $
b00000000000000000000000000000000 %
b00000000000000000000000000000001 &
b00000000000101010000010100010011 '
b00000000000000000000000000000001 (
b00000000000000000000000000000000 )
b00000000000000000000000000111000 *
b11 ,
00
12
13
b0010011 7
b0000110101 8
b01010 9
b00001 :
b01010 ;
b00000000000000000000000000101000 \
b00000000000000000000000000000001 ]
0_
b00000000000000000000000000000001 #!
#55
1_
#56
b00000000000000000000000000101000 #
b00000000000000000000000000101100 $
b00000000000000000000000000101000 %
b00000000000000000000000000100100 &
b00000010101001100000001001100011 '
b00000000000000000000000000100100 (
b00000000000000000000000000000010 )
b00000000000000000000000000000001 *
b00 ,
10
02
03
b1100011 7
b0000000110 8
b01100 9
b01010 :
b00100 ;
b00000000000000000000000000000001 F
b00000000000000000000000000101100 \
b00000000000000000000000001001100 ]
0_
b00000000000000000000000000000001 k
b00000000000000000000000001001100 #!
#57
1_
#58
b00000000000000000000000000101100 #
b00000000000000000000000000110000 $
b00000000000000000000000000000010 %
b11111111111111111111111111111111 &
b11111111111101100000011000010011 '
b11111111111111111111111111111111 (
b00000000000000000000000000000000 *
b11 ,
00
12
15
b0010011 7
b0000110101 8
b11111 :
b01100 ;
b00000000000000000000000000110000 \
b00000000000000000000000000000001 ]
0_
b00000000000000000000000000000001 #!
#59
1_
#60
b00000000000000000000000000110000 #
b00000000000000000000000000110100 $
b00000000000000000000000001011100 %
b00000000000000000000000000000000 &
b00000000110000010010000000100011 '
b00000000000000000000000000000000 (
b00000000000000000000000001011100 )
b00000000000000000000000000000001 *
b00 ,
1/
02
05
b010 6
b0100011 7
b0000001100 8
b00010 9
b01100 :
b00000 ;
b00000000000000000000000000000001 H
b00000000000000000000000000110100 \
b00000000000000000000000001011100 ]
0_
b00000000000000000000000000000001 m
b00000000000000000000000001011100 #!
#61
1_
#62
b00000000000000000000000000110100 #
b00000000000000000000000000111000 $
b00000000000000000000000000110100 %
b11111111111111111111111111011100 &
b11111101110111111111000011101111 '
b11111111111111111111111111011100 (
b00000000000000000000000000000000 )
b00000000000000000000000000000000 *
b11 -
1.
0/
10
12
14
15
b111 6
b1101111 7
b1011000111 8
b11111 9
b11101 :
b00001 ;
b00000000000000000000000000010000 \
b00000000000000000000000000010000 ]
0_
b00000000000000000000000000111000 #!
#63
1_
#64
b00000000000000000000000000010000 #
b00000000000000000000000000010100 $
b00000000000000000000000001011100 %
b11111111111111111111111111110100 &
b11111111010000010000000100010011 '
b11111111111111111111111111110100 (
b00000000000000000000000001011100 )
b11 ,
b00 -
0.
00
04
b000 6
b0010011 7
b0000110101 8
b00010 9
b10100 :
b00010 ;
b00000000000000000000000000010100 \
b00000000000000000000000001010000 ]
0_
b00000000000000000000000001010000 #!
#65
1_
#66
b00000000000000000000000000010100 #
b00000000000000000000000000011000 $
b00000000000000000000000001010000 %
b00000000000000000000000000001000 &
b00000000000100010010010000100011 '
b00000000000000000000000000001000 (
b00000000000000000000000001010000 )
b00000000000000000000000000111000 *
b00 ,
1/
02
05
b010 6
b0100011 7
b0000001100 8
b00001 :
b01000 ;
b00000000000000000000000001010000 >
b00000000000000000000000000011000 \
b00000000000000000000000001011000 ]
0_
b00000000000000000000000001010000 c
b00000000000000000000000001011000 #!
#67
1_
#68
b00000000000000000000000000011000 #
b00000000000000000000000000011100 $
b00000000000000000000000000000100 &
b00000000100000010010001000100011 '
b00000000000000000000000000000100 (
b00000000000000000000000000000000 *
b01000 :
b00100 ;
b00000000000000000000000000011100 \
b00000000000000000000000001010100 ]
0_
b00000000000000000000000001010100 #!
#69
1_
#70
b00000000000000000000000000011100 #
b00000000000000000000000000100000 $
b00000000000000000000000000000000 %
b00000000000000000000000000000000 &
b00000000000000000000010100010011 '
b00000000000000000000000000000000 (
b00000000000000000000000000000000 )
b11 ,
0/
12
14
b000 6
b0010011 7
b0000110101 8
b00000 9
b00000 :
b01010 ;
b00000000000000000000000000100000 \
b00000000000000000000000000000000 ]
0_
b00000000000000000000000000000000 #!
#71
1_
#72
b00000000000000000000000000100000 #
b00000000000000000000000000100100 $
b00000000000000000000000000100000 %
b00000000000000000000000000101100 &
b00000010000001100000011001100011 '
b00000000000000000000000000101100 (
b00000000000000000000000000000001 )
b00 ,
10
02
04
b1100011 7
b0000000110 8
b01100 9
b01100 ;
b00000000000000000000000000000000 F
b00000000000000000000000000100100 \
b00000000000000000000000001001100 ]
0_
b00000000000000000000000000000000 k
b00000000000000000000000001001100 #!
#73
1_
#74
b00000000000000000000000000100100 #
b00000000000000000000000000101000 $
b00000000000000000000000000000000 %
b00000000000000000000000000000001 &
b00000000000101010000010100010011 '
b00000000000000000000000000000001 (
b00000000000000000000000000000000 )
b00000000000000000000000000111000 *
b11 ,
00
12
13
b0010011 7
b0000110101 8
b01010 9
b00001 :
b01010 ;
b00000000000000000000000000101000 \
b00000000000000000000000000000001 ]
0_
b00000000000000000000000000000001 #!
#75
1_
#76
b00000000000000000000000000101000 #
b00000000000000000000000000101100 $
b00000000000000000000000000000001 %
b00000010101001100000001001100011 '
b00000000000000000000000000100100 (
b00000000000000000000000000000001 )
b00000000000000000000000000000001 *
b00 ,
1.
01
02
03
14
b1100011 7
b1000000000 8
b01100 9
b01010 :
b00100 ;
b00000000000000000000000000000001 F
b00000000000000000000000000000010 \
b00000000000000000000000000000010 ]
0_
b00000000000000000000000000000001 k
b00000000000000000000000000000010 #!
#77
1_
#78
b00000000000000000000000000000010 #
b00000000000000000000000000000110 $
b00000000000000000000000000000000 %
b00000000000000000000000000111000 &
b00000110000100110000000011000000 '
b00000000000000000000000000000000 (
b00000000000000000000000000000000 )
b00000000000000000000000000111000 *
0.
13
04
b1000000 7
b0000000000 8
b00110 9
b00001 :
b00001 ;
b00000000000000000000000000000110 \
b00000000000000000000000000111000 ]
0_
b00000000000000000000000000111000 #!
#79
1_
#80
b00000000000000000000000000000110 #
b00000000000000000000000000001010 $
b00000000000000000000000000000000 &
b00000000111011110000000001000000 '
b00000000000000000000000000000000 *
03
14
b11110 9
b01110 :
b00000 ;
b00000000000000000000000000001010 \
b00000000000000000000000000000000 ]
0_
b00000000000000000000000000000000 #!
#81
1_
#82
b00000000000000000000000000001010 #
b00000000000000000000000000001110 $
b00000000111011110000000000000000 '
b0000000 7
b00000000000000000000000000001110 \
0_
#83
1_
#84
b00000000000000000000000000001110 #
b00000000000000000000000000010010 $
b00000000011011111111111101000001 '
b111 6
b1000001 7
b11111 9
b00110 :
b11110 ;
b00000000000000000000000000010010 \
0_
#85
1_
